Tue May 24 20:06:17 CEST 2016
Preloading tcmalloc_minimal.so
Py:Athena            INFO including file "AthenaCommon/Preparation.py"
Py:Athena            INFO using release [WorkDir-21.0.0] [x86_64-slc6-gcc49-opt] [private/private] -- built on [2016-05-24 20:03]
Py:Athena            INFO including file "AthenaCommon/Atlas.UnixStandardJob.py"
Warning in <TInterpreter::ReadRootmapFile>: class  Event found in libG4AtlasControlDict.so  is already in libtest_GPyTestDict.so 
Warning in <TInterpreter::ReadRootmapFile>: class  UCharDbArray found in libStorageSvcDict.so  is already in libRootCnvDict.so 
Py:Athena            INFO executing ROOT6Setup
[?1034hPy:Athena            INFO including file "AthenaCommon/Execution.py"
Py:Athena            INFO including file "TrigEventAthenaPool/TrigEventAthenaPool_16.0.3.3_test.py"
Py:Athena            INFO including file "AthenaPoolUtilities/TPCnvTest.py"
Py:ConfigurableDb    INFO Read module info for 5012 configurables from 9 genConfDb files
Py:ConfigurableDb WARNING Found 1 duplicates among the 9 genConfDb files :
Py:ConfigurableDb WARNING --------------------------------------------------
Py:ConfigurableDb WARNING   -<component name>: <module> - [ <duplicates> ]
Py:ConfigurableDb WARNING --------------------------------------------------
Py:ConfigurableDb WARNING   -D3PD__TrigConfMetadataTool: TriggerD3PDMaker.TriggerD3PDMakerConf - ['TrigCostD3PDMaker.TrigCostD3PDMakerConf']
Py:ConfigurableDb WARNING Fix your cmt/requirements file !!
Py:Athena            INFO including file "IdDictDetDescrCnv/IdDictDetDescrCnv_joboptions.py"
EventInfoMgtInit: Got release version  AtlasOffline-rel_2
Py:IOVDbSvc.CondDB    INFO Setting up conditions DB access to instance OFLP200
Data source lookup using /afs/cern.ch/atlas/software/builds/nightlies/devval/AtlasCore/rel_2/InstallArea/x86_64-slc6-gcc49-opt/XML/AtlasAuthentication/dblookup.xml file
loading ISF_Geant4Tools
Py:ConfiguredFactory    INFO imported 104 confDb modules in 28.25 seconds
SetGeometryVersion.py obtained major release version 21
Py:TileInfoConf.     INFO Adding TileCablingSvc to ServiceMgr
Py:TileInfoConf.     INFO Adding default TileBadChanTool to ToolSvc
Py:TileInfoConf.     INFO Adding default TileCondToolOfc to ToolSvc
Py:TileInfoConf.     INFO Adding default TileCondToolEmscale to ToolSvc
Py:TileInfoConf.     INFO Adding default TileCondToolNoiseSample to ToolSvc
Py:TileInfoConf.     INFO Adding default TileCondToolTiming to ToolSvc
Py:Athena            INFO including file "AthenaCommon/runbatch.py"
ApplicationMgr       INFO Updating Gaudi::PluginService::SetDebug(level) to level= 'PluginDebugLevel':0
ApplicationMgr    SUCCESS 
====================================================================================================================================
                                                   Welcome to ApplicationMgr (GaudiCoreSvc v4r1)
                                          running on lxplus033.cern.ch on Tue May 24 20:07:26 2016
====================================================================================================================================
ApplicationMgr       INFO Successfully loaded modules : AthenaServices
ApplicationMgr       INFO Application Manager Configured successfully
ApplicationMgr       INFO Updating Gaudi::PluginService::SetDebug(level) to level= 'PluginDebugLevel':0
StatusCodeSvc        INFO initialize
JobIDSvc             INFO Initializing JobIDSvc - package version AthenaServices-01-60-14
AthDictLoaderSvc     INFO in initialize...
AthDictLoaderSvc     INFO acquired Dso-registry
ClassIDSvc           INFO Initializing ClassIDSvc - package version CLIDComps-00-06-20
ClassIDSvc           INFO  getRegistryEntries: read 6212 CLIDRegistry entries for module ALL
ChronoStatSvc        INFO  Number of skipped events for MemStat-1
CoreDumpSvc          INFO install f-a-t-a-l handler... (flag = -1)
CoreDumpSvc          INFO Handling signals: 11(Segmentation fault) 7(Bus error) 4(Illegal instruction) 8(Floating point exception) 
DetectorStore        INFO Initializing DetectorStore - package version StoreGate-03-06-43
MetaDataSvc          INFO Initializing MetaDataSvc - package version AthenaServices-01-60-14
InputMetaDataStore   INFO Initializing InputMetaDataStore - package version StoreGate-03-06-43
MetaDataStore        INFO Initializing MetaDataStore - package version StoreGate-03-06-43
AthenaPoolCnvSvc     INFO Initializing AthenaPoolCnvSvc - package version AthenaPoolCnvSvc-00-28-20
PoolSvc              INFO Initializing PoolSvc - package version PoolSvc-00-25-03
PoolSvc              INFO io_register[PoolSvc](xmlcatalog_file:PoolFileCatalog.xml) [ok]
PoolSvc              INFO Set connectionsvc retry/timeout/IDLE timeout to  'ConnectionRetrialPeriod':300/ 'ConnectionRetrialTimeOut':3600/ 'ConnectionTimeOut':5 seconds with connection cleanup disabled
PoolSvc              INFO Frontier compression level set to 5
DBReplicaSvc         INFO Frontier server at (serverurl=http://atlasfrontier-ai.cern.ch:8000/atlr)(serverurl=http://aiatlas036.cern.ch:8000/atlr)(serverurl=http://aiatlas034.cern.ch:8000/atlr)(serverurl=http://ccfrontier.in2p3.fr:23128/ccin2p3-AtlasFrontier)(serverurl=http://ccsqfatlasli02.in2p3.fr:23128/ccin2p3-AtlasFrontier)(serverurl=http://ccsqfatlasli01.in2p3.fr:23128/ccin2p3-AtlasFrontier)(proxyurl=http://ca-proxy.cern.ch:3128)(proxyurl=http://ca18.cern.ch:3128)(proxyurl=http://ca17.cern.ch:3128)(proxyurl=http://atlast0fsquid.cern.ch:3128)(proxyurl=http://atlassquid1.cern.ch:3128)(proxyurl=http://atlassquid2.cern.ch:3128)(proxyurl=http://atlassquid4.cern.ch:3128) will be considered for COOL data
DBReplicaSvc         INFO Read replica configuration from /afs/cern.ch/atlas/software/builds/nightlies/devval/AtlasCore/rel_2/InstallArea/x86_64-slc6-gcc49-opt/share/dbreplica.config
DBReplicaSvc         INFO Total of 10 servers found for host lxplus033.cern.ch [ATLF ATLAS_COOLPROD atlas_dd ATLAS_CONFIG INT8R INTR ATONR_COOL ATONR_CONF DEVDB11 ATLF ]
PoolSvc              INFO Successfully setup replica sorting algorithm
PoolSvc              INFO Re-initializing PoolSvc
PoolSvc           WARNING Unable to locate catalog for prfile:poolcond/PoolCat_oflcond.xml via PathResolver, check your DATAPATH variable
PoolSvc              INFO Resolved path (via ATLAS_POOLCOND_PATH) is /afs/cern.ch/atlas/conditions/poolcond/catalogue/poolcond/PoolCat_oflcond.xml
PoolSvc              INFO POOL WriteCatalog is xmlcatalog_file:PoolFileCatalog.xml
XMLFileCatalog Info Connecting to the catalog
PoolXMLFileCatalog Info Xerces-c initialization Number 0
XMLFileCatalog Info Connecting to the catalog
PoolXMLFileCatalog Info File PoolFileCatalog.xml does not exist, a new one is created
PoolXMLFileCatalog Info Read-only filesystem
EventSelector        INFO Initializing EventSelector - package version EventSelectorAthenaPool-00-19-11
TagMetaDataStore     INFO Initializing TagMetaDataStore - package version StoreGate-03-06-43
EventSelector        INFO reinitialization...
EventSelector        INFO EventSelection with query 
PoolSvc              INFO File is not in Catalog! Attempt to open it anyway.
RootCollection Info Opening Collection File /afs/cern.ch/atlas/maxidisk/d33/referencefiles/aod/AOD-16.0.3.3/AOD-16.0.3.3-full.pool.root in mode: READ
TClass::Init:0: RuntimeWarning: no dictionary for class CosmicMuonCollection_tlp1 is available
TClass::Init:0: RuntimeWarning: no dictionary for class CosmicMuonCollection_p1 is available
TClass::Init:0: RuntimeWarning: no dictionary for class CosmicMuon_p1 is available
TClass::Init:0: RuntimeWarning: no dictionary for class MdtTrackSegmentCollection_tlp1 is available
TClass::Init:0: RuntimeWarning: no dictionary for class MdtTrackSegmentCollection_p1 is available
TClass::Init:0: RuntimeWarning: no dictionary for class MdtTrackSegment_p1 is available
RootCollection Info File /afs/cern.ch/atlas/maxidisk/d33/referencefiles/aod/AOD-16.0.3.3/AOD-16.0.3.3-full.pool.root opened
PoolSvc              INFO File is not in Catalog! Attempt to open it anyway.
PoolSvc              INFO Failed to open container to check POOL collection - trying.
DbSession Info     Open     DbSession    
Domain[ROOT_All] Info >   Access   DbDomain     READ      [ROOT_All] 
Domain[ROOT_All] Info ->  Access   DbDatabase   READ      [ROOT_All] C4F92FBD-DB6D-F246-6207-405E6A399F01
Domain[ROOT_All] Info                           /afs/cern.ch/atlas/maxidisk/d33/referencefiles/aod/AOD-16.0.3.3/AOD-16.0.3.3-full.pool.root
RootDatabase.open Success /afs/cern.ch/atlas/maxidisk/d33/referencefiles/aod/AOD-16.0.3.3/AOD-16.0.3.3-full.pool.root File version:52600
/afs/cern.ch/atlas/maxidisk/d33/referencefiles/aod/AOD-16.0.3.3/AOD-16.0.3.3-full.pool.root Info Database being retired...
Domain[ROOT_All] Info ->  Deaccess DbDatabase   READ      [ROOT_All] C4F92FBD-DB6D-F246-6207-405E6A399F01
Domain[ROOT_All] Info >   Deaccess DbDomain     READ      [ROOT_All] 
DbSession Info     Open     DbSession    
Domain[ROOT_All] Info >   Access   DbDomain     READ      [ROOT_All] 
Domain[ROOT_All] Info ->  Access   DbDatabase   READ      [ROOT_All] 48D7B5A4-1E0D-E011-B6D0-003048F0E778
Domain[ROOT_All] Info                           /afs/cern.ch/atlas/maxidisk/d33/referencefiles/aod/AOD-16.0.3.3/AOD-16.0.3.3-full.pool.root
RootDatabase.open Success /afs/cern.ch/atlas/maxidisk/d33/referencefiles/aod/AOD-16.0.3.3/AOD-16.0.3.3-full.pool.root File version:52600
PoolSvc              INFO File is not in Catalog! Attempt to open it anyway.
ImplicitCollection Info Opened the implicit collection with connection string "PFN:/afs/cern.ch/atlas/maxidisk/d33/referencefiles/aod/AOD-16.0.3.3/AOD-16.0.3.3-full.pool.root"
ImplicitCollection Info and a name "POOLContainer_DataHeader"
PoolSvc              INFO Failed to find container MetaDataHdr(DataHeader) to get Token.
PoolSvc              INFO Failed to find container MetaDataHdr(DataHeader) to get Token.
EventPersistenc...   INFO Added successfully Conversion service:AthenaPoolCnvSvc
AthenaPoolAddre...   INFO Initializing AthenaPoolAddressProviderSvc - package version EventSelectorAthenaPool-00-19-11
IOVDbSvc             INFO Opened read transaction for POOL PersistencySvc
IOVDbSvc             INFO Only 5 POOL conditions files will be open at once
IOVDbSvc             INFO Cache alignment will be done in 3 slices
IOVDbSvc             INFO Read from meta data only for folder /TagInfo
IOVDbSvc             INFO Initialised with 4 connections and 11 folders
IOVDbSvc             INFO Service IOVDbSvc initialised successfully
ProxyProviderSvc     INFO Initializing ProxyProviderSvc - package version SGComps-00-02-08
IOVDbSvc             INFO Folder /TagInfo will be taken from file metadata
IOVDbSvc             INFO Found 15 metadata containers in input file, 1 will be used
StoreGateSvc         INFO Initializing StoreGateSvc - package version StoreGate-03-06-43
ConditionStore       INFO Initializing ConditionStore - package version StoreGate-03-06-43
IOVSvc               INFO No IOVSvcTool associated with store "StoreGateSvc"
IOVSvcTool           INFO IOVRanges will be checked at every Event
IOVDbSvc             INFO Opening COOL connection for COOLOFL_TRT/OFLP200
CoralApplication Info Create a cool::CoralApplication...
CoralApplication Info Create a new own CORAL connection service
CoralApplication Info Create the COOL database service
RalDatabaseSvc Info Instantiate the RalDatabaseSvc
CoralApplication Info Create a cool::CoralApplication... DONE
RalSessionMgr Info Instantiate a R/O RalSessionMgr for 'COOLOFL_TRT/OFLP200'
RalSessionMgr Info Connect to the database server
RalSessionMgr Warning Use COOL_DISABLE_CORALCONNECTIONPOOLCLEANUP
CORAL/Services/ConnectionService Info ConnectionServiceConfiguration::setConnectionTimeOut 0
CORAL/Services/ConnectionService Info Re-ordering 3 replicas using installed algorithm
CORAL/Services/ConnectionService Info Sorting algorithm selected 4 replicas
CORAL/Services/ConnectionService Warning Failed to connect to service sqlite200/ALLP200.db (coral::Exception): 'CORAL/RelationalPlugins/sqlite ( CORAL : "Connection::connect" from "/afs/cern.ch/work/s/ssnyder/builds/atlas-work3e/build-x86_64-slc6-gcc49-opt/Trigger/TrigEvent/TrigEventAthenaPool/unitTestRun/TrigEventAthenaPool_16.0.3.3/sqlite200 is not writable" )' - do NOT retry
CORAL/Services/ConnectionService Info Connection to service "sqlite200/ALLP200.db" with connectionID=C#3 will be disconnected
CORAL/Services/ConnectionService Warning Failure while attempting to connect to "sqlite_file:sqlite200/ALLP200.db": CORAL/RelationalPlugins/sqlite ( CORAL : "Connection::connect" from "/afs/cern.ch/work/s/ssnyder/builds/atlas-work3e/build-x86_64-slc6-gcc49-opt/Trigger/TrigEvent/TrigEventAthenaPool/unitTestRun/TrigEventAthenaPool_16.0.3.3/sqlite200 is not writable" )
CORAL/RelationalPlugins/frontier Info The current compresion level is 5
CORAL/Services/ConnectionService Info New connection to service "ATLF/()" with connectionID=C#4 has been connected
CORAL/Services/ConnectionService Info New user session with sessionID=S#2(C#4.s#1) started on connectionID=C#4 to service "ATLF/()" for user "" in read-only mode
RalSessionMgr Info Start a read-only transaction active for the duration of the database connection
RelationalDatabase Info Instantiate a R/O RalDatabase for 'COOLOFL_TRT/OFLP200'
RelationalDatabase Info Release number backward compatibility - NO SCHEMA EVOLUTION REQUIRED: database with OLDER release number 2.8.0 will be opened using CURRENT client release number 3.1.3
IOVDbSvc             INFO Opening COOL connection for COOLOFL_INDET/OFLP200
RalSessionMgr Info Instantiate a R/O RalSessionMgr for 'COOLOFL_INDET/OFLP200'
RalSessionMgr Info Connect to the database server
CORAL/Services/ConnectionService Info Re-ordering 3 replicas using installed algorithm
CORAL/Services/ConnectionService Info Sorting algorithm selected 4 replicas
CORAL/Services/ConnectionService Warning Failed to connect to service sqlite200/ALLP200.db (coral::Exception): 'CORAL/RelationalPlugins/sqlite ( CORAL : "Connection::connect" from "/afs/cern.ch/work/s/ssnyder/builds/atlas-work3e/build-x86_64-slc6-gcc49-opt/Trigger/TrigEvent/TrigEventAthenaPool/unitTestRun/TrigEventAthenaPool_16.0.3.3/sqlite200 is not writable" )' - do NOT retry
CORAL/Services/ConnectionService Info Connection to service "sqlite200/ALLP200.db" with connectionID=C#5 will be disconnected
CORAL/Services/ConnectionService Warning Failure while attempting to connect to "sqlite_file:sqlite200/ALLP200.db": CORAL/RelationalPlugins/sqlite ( CORAL : "Connection::connect" from "/afs/cern.ch/work/s/ssnyder/builds/atlas-work3e/build-x86_64-slc6-gcc49-opt/Trigger/TrigEvent/TrigEventAthenaPool/unitTestRun/TrigEventAthenaPool_16.0.3.3/sqlite200 is not writable" )
CORAL/Services/ConnectionService Info New user session with sessionID=S#3(C#4.s#2) started on connectionID=C#4 to service "ATLF/()" for user "" in read-only mode
RalSessionMgr Info Start a read-only transaction active for the duration of the database connection
RelationalDatabase Info Instantiate a R/O RalDatabase for 'COOLOFL_INDET/OFLP200'
RelationalDatabase Info Release number backward compatibility - NO SCHEMA EVOLUTION REQUIRED: database with OLDER release number 2.8.0 will be opened using CURRENT client release number 3.1.3
IOVDbSvc             INFO Disconnecting from COOLOFL_TRT/OFLP200
RalSessionMgr Info Commit the read-only transaction active for the duration of the database connection
RalSessionMgr Info Disconnect from the database server
CORAL/Services/ConnectionService Info User session with sessionID=S#2(C#4.s#1) will be ended on connectionID=C#4
RelationalDatabase Info Delete the RalDatabase for 'COOLOFL_TRT/OFLP200'
RalSessionMgr Info Delete the RalSessionMgr for 'COOLOFL_TRT/OFLP200'
IOVDbSvc             INFO Opening COOL connection for COOLOFL_LAR/OFLP200
RalSessionMgr Info Instantiate a R/O RalSessionMgr for 'COOLOFL_LAR/OFLP200'
RalSessionMgr Info Connect to the database server
CORAL/Services/ConnectionService Info Re-ordering 3 replicas using installed algorithm
CORAL/Services/ConnectionService Info Sorting algorithm selected 4 replicas
CORAL/Services/ConnectionService Warning Failed to connect to service sqlite200/ALLP200.db (coral::Exception): 'CORAL/RelationalPlugins/sqlite ( CORAL : "Connection::connect" from "/afs/cern.ch/work/s/ssnyder/builds/atlas-work3e/build-x86_64-slc6-gcc49-opt/Trigger/TrigEvent/TrigEventAthenaPool/unitTestRun/TrigEventAthenaPool_16.0.3.3/sqlite200 is not writable" )' - do NOT retry
CORAL/Services/ConnectionService Info Connection to service "sqlite200/ALLP200.db" with connectionID=C#6 will be disconnected
CORAL/Services/ConnectionService Warning Failure while attempting to connect to "sqlite_file:sqlite200/ALLP200.db": CORAL/RelationalPlugins/sqlite ( CORAL : "Connection::connect" from "/afs/cern.ch/work/s/ssnyder/builds/atlas-work3e/build-x86_64-slc6-gcc49-opt/Trigger/TrigEvent/TrigEventAthenaPool/unitTestRun/TrigEventAthenaPool_16.0.3.3/sqlite200 is not writable" )
CORAL/Services/ConnectionService Info New user session with sessionID=S#4(C#4.s#3) started on connectionID=C#4 to service "ATLF/()" for user "" in read-only mode
RalSessionMgr Info Start a read-only transaction active for the duration of the database connection
RelationalDatabase Info Instantiate a R/O RalDatabase for 'COOLOFL_LAR/OFLP200'
RelationalDatabase Info Release number backward compatibility - NO SCHEMA EVOLUTION REQUIRED: database with OLDER release number 2.7.0 will be opened using CURRENT client release number 3.1.3
IOVDbSvc             INFO Disconnecting from COOLOFL_INDET/OFLP200
RalSessionMgr Info Commit the read-only transaction active for the duration of the database connection
RalSessionMgr Info Disconnect from the database server
CORAL/Services/ConnectionService Info User session with sessionID=S#3(C#4.s#2) will be ended on connectionID=C#4
RelationalDatabase Info Delete the RalDatabase for 'COOLOFL_INDET/OFLP200'
RalSessionMgr Info Delete the RalSessionMgr for 'COOLOFL_INDET/OFLP200'
IOVDbSvc             INFO Disconnecting from COOLOFL_LAR/OFLP200
RalSessionMgr Info Commit the read-only transaction active for the duration of the database connection
RalSessionMgr Info Disconnect from the database server
CORAL/Services/ConnectionService Info User session with sessionID=S#4(C#4.s#3) will be ended on connectionID=C#4
CORAL/Services/ConnectionService Info Connection to service "ATLF/()" with connectionID=C#4 will be disconnected
RelationalDatabase Info Delete the RalDatabase for 'COOLOFL_LAR/OFLP200'
RalSessionMgr Info Delete the RalSessionMgr for 'COOLOFL_LAR/OFLP200'
IOVDbSvc             INFO Added taginfo remove for /TagInfo
DetDescrCnvSvc       INFO  initializing 
DetDescrCnvSvc       INFO Found DetectorStore service
DetDescrCnvSvc       INFO  filling proxies for detector managers 
DetDescrCnvSvc       INFO  filling address for CaloTTMgr with CLID 117659265 and storage type 68 to detector store 
DetDescrCnvSvc       INFO  filling address for CaloMgr with CLID 4548337 and storage type 68 to detector store 
DetDescrCnvSvc       INFO  filling address for CaloSuperCellMgr with CLID 241807251 and storage type 68 to detector store 
DetDescrCnvSvc       INFO  filling address for CaloIdManager with CLID 125856940 and storage type 68 to detector store 
DetDescrCnvSvc       INFO  filling address for LArIdManager with CLID 79554919 and storage type 68 to detector store 
DetDescrCnvSvc       INFO  filling address for IdDict with CLID 2411 and storage type 68 to detector store 
DetDescrCnvSvc       INFO  filling address for AtlasID with CLID 164875623 and storage type 68 to detector store 
DetDescrCnvSvc       INFO  filling address for PixelID with CLID 2516 and storage type 68 to detector store 
DetDescrCnvSvc       INFO  filling address for SCT_ID with CLID 2517 and storage type 68 to detector store 
DetDescrCnvSvc       INFO  filling address for TRT_ID with CLID 2518 and storage type 68 to detector store 
DetDescrCnvSvc       INFO  filling address for SiliconID with CLID 129452393 and storage type 68 to detector store 
DetDescrCnvSvc       INFO  filling address for LArEM_ID with CLID 163583365 and storage type 68 to detector store 
DetDescrCnvSvc       INFO  filling address for LArEM_SuperCell_ID with CLID 99488227 and storage type 68 to detector store 
DetDescrCnvSvc       INFO  filling address for LArHEC_ID with CLID 3870484 and storage type 68 to detector store 
DetDescrCnvSvc       INFO  filling address for LArHEC_SuperCell_ID with CLID 254277678 and storage type 68 to detector store 
DetDescrCnvSvc       INFO  filling address for LArFCAL_ID with CLID 45738051 and storage type 68 to detector store 
DetDescrCnvSvc       INFO  filling address for LArFCAL_SuperCell_ID with CLID 12829437 and storage type 68 to detector store 
DetDescrCnvSvc       INFO  filling address for LArMiniFCAL_ID with CLID 79264204 and storage type 68 to detector store 
DetDescrCnvSvc       INFO  filling address for LArOnlineID with CLID 158698068 and storage type 68 to detector store 
DetDescrCnvSvc       INFO  filling address for TTOnlineID with CLID 38321944 and storage type 68 to detector store 
DetDescrCnvSvc       INFO  filling address for LArOnline_SuperCellID with CLID 115600394 and storage type 68 to detector store 
DetDescrCnvSvc       INFO  filling address for LArHVLineID with CLID 27863673 and storage type 68 to detector store 
DetDescrCnvSvc       INFO  filling address for LArElectrodeID with CLID 80757351 and storage type 68 to detector store 
DetDescrCnvSvc       INFO  filling address for TileID with CLID 2901 and storage type 68 to detector store 
DetDescrCnvSvc       INFO  filling address for Tile_SuperCell_ID with CLID 49557789 and storage type 68 to detector store 
DetDescrCnvSvc       INFO  filling address for TileHWID with CLID 2902 and storage type 68 to detector store 
DetDescrCnvSvc       INFO  filling address for TileTBID with CLID 2903 and storage type 68 to detector store 
DetDescrCnvSvc       INFO  filling address for MDTIDHELPER with CLID 4170 and storage type 68 to detector store 
DetDescrCnvSvc       INFO  filling address for CSCIDHELPER with CLID 4171 and storage type 68 to detector store 
DetDescrCnvSvc       INFO  filling address for RPCIDHELPER with CLID 4172 and storage type 68 to detector store 
DetDescrCnvSvc       INFO  filling address for TGCIDHELPER with CLID 4173 and storage type 68 to detector store 
DetDescrCnvSvc       INFO  filling address for STGCIDHELPER with CLID 4174 and storage type 68 to detector store 
DetDescrCnvSvc       INFO  filling address for MMIDHELPER with CLID 4175 and storage type 68 to detector store 
DetDescrCnvSvc       INFO  filling address for CaloLVL1_ID with CLID 108133391 and storage type 68 to detector store 
DetDescrCnvSvc       INFO  filling address for CaloCell_ID with CLID 123500438 and storage type 68 to detector store 
DetDescrCnvSvc       INFO  filling address for CaloCell_SuperCell_ID with CLID 128365736 and storage type 68 to detector store 
DetDescrCnvSvc       INFO  filling address for CaloDM_ID with CLID 167756483 and storage type 68 to detector store 
DetDescrCnvSvc       INFO  filling address for ZdcID with CLID 190591643 and storage type 68 to detector store 
GeoModelSvc.Muo...   INFO Initializing ...
ToolSvc.MGM_Ali...   INFO Initilalizing
ToolSvc.MGM_Ali...   INFO In initialize ---- # of folders registered is 0
ToolSvc.MGM_Ali...   INFO A Lines container recorded in the detector store
ToolSvc.MGM_Ali...   INFO B Lines container recorded in the detector store
ToolSvc.MGM_Ali...   INFO As-Built container recorded in the detector store
ToolSvc.MGM_Ali...   INFO I-Lines container recorded in the detector store or skipped since not needed
ToolSvc.MGM_Ali...   INFO proxy for class ALineParContainer found
ToolSvc.MGM_Ali...   INFO proxy transient Address found
ToolSvc.MGM_Ali...   INFO proxy for class BLineParContainer found
ToolSvc.MGM_Ali...   INFO proxy transient Address found
ToolSvc.MGM_Ali...   INFO proxy for class CscInternalAlignmentMapContainer found or not needed
ToolSvc.MGM_Ali...   INFO proxy transient Address found or not needed
ToolSvc.MGM_Ali...   INFO proxy for class MdtAsBuiltParContainer found
ToolSvc.MGM_Ali...   INFO proxy transient Address found
GeoModelSvc          INFO Retrieved DetectorTools = PrivateToolHandleArray(['PixelDetectorTool/PixelDetectorTool','SCT_DetectorTool/SCT_DetectorTool','TRT_DetectorTool/TRT_DetectorTool','InDetServMatTool/InDetServMatTool','LArDetectorToolNV/LArDetectorToolNV','TileDetectorTool/TileDetectorTool','MuonDetectorTool/MuonDetectorTool','BeamPipeDetectorTool/BeamPipeDetectorTool'])
CORAL/Services/ConnectionService Info Re-ordering 3 replicas using installed algorithm
CORAL/Services/ConnectionService Info Sorting algorithm selected 4 replicas
CORAL/Services/ConnectionService Warning Failed to connect to service geomDB/geomDB_sqlite (coral::Exception): 'CORAL/RelationalPlugins/sqlite ( CORAL : "Connection::connect" from "/afs/cern.ch/work/s/ssnyder/builds/atlas-work3e/build-x86_64-slc6-gcc49-opt/Trigger/TrigEvent/TrigEventAthenaPool/unitTestRun/TrigEventAthenaPool_16.0.3.3/geomDB is not writable" )' - do NOT retry
CORAL/Services/ConnectionService Info Connection to service "geomDB/geomDB_sqlite" with connectionID=C#7 will be disconnected
CORAL/Services/ConnectionService Warning Failure while attempting to connect to "sqlite_file:geomDB/geomDB_sqlite": CORAL/RelationalPlugins/sqlite ( CORAL : "Connection::connect" from "/afs/cern.ch/work/s/ssnyder/builds/atlas-work3e/build-x86_64-slc6-gcc49-opt/Trigger/TrigEvent/TrigEventAthenaPool/unitTestRun/TrigEventAthenaPool_16.0.3.3/geomDB is not writable" )
CORAL/RelationalPlugins/frontier Info The current compresion level is 5
CORAL/Services/ConnectionService Info New connection to service "ATLF/()" with connectionID=C#8 has been connected
CORAL/Services/ConnectionService Info New user session with sessionID=S#5(C#8.s#1) started on connectionID=C#8 to service "ATLF/()" for user "" in read-only mode
GeoModelSvc.Pix...   INFO Building Pixel Detector with Version Tag: ATLAS-R1-2012-03-01-00 at Node: ATLAS
GeoModelSvc.Pix...   INFO Pixel Version: Pixel-GEO-13  Package Version: PixelGeoModel-00-09-58
EventPersistenc...   INFO Added successfully Conversion service:DetDescrCnvSvc
PixelIDDetDescrCnv   INFO in createObj: creating a PixelID helper object in the detector store
IdDictDetDescrCnv    INFO in initialize
IdDictDetDescrCnv    INFO in createObj: creating a IdDictManager object in the detector store
IdDictDetDescrCnv    INFO IdDictName:  IdDictParser/ATLAS_IDS.xml
IdDictDetDescrCnv    INFO Reading InnerDetector    IdDict file IdDictParser/IdDictInnerDetector.xml
IdDictDetDescrCnv    INFO Reading LArCalorimeter   IdDict file IdDictParser/IdDictLArCalorimeter_DC3-05-Comm-01.xml
IdDictDetDescrCnv    INFO Reading TileCalorimeter  IdDict file IdDictParser/IdDictTileCalorimeter.xml
IdDictDetDescrCnv    INFO Reading Calorimeter      IdDict file IdDictParser/IdDictCalorimeter_L1Onl.xml
IdDictDetDescrCnv    INFO Reading MuonSpectrometer IdDict file IdDictParser/IdDictMuonSpectrometer_R.01.xml
IdDictDetDescrCnv    INFO Reading ForwardDetectors IdDict file IdDictParser/IdDictForwardDetectors_2010.xml
IdDictDetDescrCnv    INFO Found id dicts:
IdDictDetDescrCnv    INFO Using dictionary tag: destaged_layout
IdDictDetDescrCnv    INFO Dictionary ATLAS                version default              DetDescr tag (using default) file 
IdDictDetDescrCnv    INFO Dictionary Calorimeter          version default              DetDescr tag CaloIdentifier-LVL1-02 file IdDictParser/IdDictCalorimeter_L1Onl.xml
IdDictDetDescrCnv    INFO Dictionary ForwardDetectors     version default              DetDescr tag ForDetIdentifier-01       file IdDictParser/IdDictForwardDetectors_2010.xml
IdDictDetDescrCnv    INFO Dictionary InnerDetector        version default              DetDescr tag InDetIdentifier-05        file IdDictParser/IdDictInnerDetector.xml
IdDictDetDescrCnv    INFO Dictionary LArCalorimeter       version fullAtlas            DetDescr tag LArIdentifier-DC3-05-Comm file IdDictParser/IdDictLArCalorimeter_DC3-05-Comm-01.xml
IdDictDetDescrCnv    INFO Dictionary LArElectrode         version fullAtlas            DetDescr tag (using default) file 
IdDictDetDescrCnv    INFO Dictionary LArHighVoltage       version fullAtlas            DetDescr tag (using default) file 
IdDictDetDescrCnv    INFO Dictionary MuonSpectrometer     version R.01                 DetDescr tag MuonIdentifier-02         file IdDictParser/IdDictMuonSpectrometer_R.01.xml
IdDictDetDescrCnv    INFO Dictionary TileCalorimeter      version fullAtlasAndTestBeam DetDescr tag TileIdentifier-00         file IdDictParser/IdDictTileCalorimeter.xml
PixelID              INFO Initialize from dictionary
AtlasDetectorID      INFO initialize_from_dictionary - OK
indet 1 2,4,5,7,10,11,12,13 7 1fffffffffffffff 61 3 0 min/max 2 13 values  2 4 5 7 10 11 12 13 indexes  0 0 1 2 0 3 0 0 4 5 6 7 indices  8 prev  0 next  0 mode  enumerated  cont mode  none  
pixel 1 1:3 3 e7ffffffffffffff 59 2 3 min/max 1 3 values  indexes  indices  3 prev  0 next  0 mode  both_bounded  cont mode  none  
bec 1 -2,0,2 3 f9ffffffffffffff 57 2 5 min/max -2 2 values  -2 0 2 indexes  0 0 1 0 2 indices  3 prev  0 next  0 mode  enumerated  cont mode  none  
bec_shift 0 0 0 0 0 0 0 min/max 0 0 values  indexes  indices  0 prev  0 next  0 mode  both_bounded  cont mode  none  
lay_disk 0 0:2 3 fe7fffffffffffff 55 2 7 min/max 0 2 values  indexes  indices  3 prev  0 next  0 mode  both_bounded  cont mode  none  
lay_disk_shift 0 0 0 0 0 0 0 min/max 0 0 values  indexes  indices  0 prev  0 next  0 mode  both_bounded  cont mode  none  
phi_mod 0 0:51 3f ff81ffffffffffff 49 6 9 min/max 0 51 values  indexes  indices  52 prev  0 next  0 mode  both_bounded  cont mode  none  
phi_mod_shift 0 0 0 0 0 0 0 min/max 0 0 values  indexes  indices  0 prev  0 next  0 mode  both_bounded  cont mode  none  
eta_mod 1 -6:6 f fffe1fffffffffff 45 4 15 min/max -6 6 values  indexes  indices  13 prev  0 next  0 mode  both_bounded  cont mode  none  
eta_mod_shift 0 0 0 0 0 0 0 min/max 0 0 values  indexes  indices  0 prev  0 next  0 mode  both_bounded  cont mode  none  
phi_index 0 0:327 1ff ffffe00fffffffff 36 9 19 min/max 0 327 values  indexes  indices  328 prev  0 next  0 mode  both_bounded  cont mode  none  
eta_index 0 0:191 ff fffffff00fffffff 28 8 28 min/max 0 191 values  indexes  indices  192 prev  0 next  0 mode  both_bounded  cont mode  none  
bec_eta_mod 0 0 0 0 0 0 0 min/max 0 0 values  indexes  indices  0 prev  0 next  0 mode  both_bounded  cont mode  none  
PixelID::initLevelsFromDict - found levels 
subdet        0
part          1
barrel_endcap 2
layer or disk 3
phi_module    4
eta_module    5
phi_index     6
eta_index     7
InDetGeometryDBSvc   INFO GeometryDBSvc Initialized
ToolSvc.InDetDD...   INFO BCMBuilder initialize() successful in ToolSvc.InDetDD::BCM_Builder
GeoModelSvc.Pix...   INFO BCM_GeoModel tool retrieved: BCM_Tool = PublicToolHandle('InDetDD::BCM_Builder/InDetDD::BCM_Builder')
ToolSvc.InDetDD...   INFO BLMBuilder initialize() successful in ToolSvc.InDetDD::BLM_Builder
GeoModelSvc.Pix...   INFO BLM_GeoModel tool retrieved: BLM_Tool = PublicToolHandle('InDetDD::BLM_Builder/InDetDD::BLM_Builder')
GeoModelSvc.Pix...   INFO Service builder tool not specified.
PixelGeoModel        INFO Retrieving Record Sets from database ...
PixelGeoModel        INFO Key = ATLAS-R1-2012-03-01-00 Node = ATLAS
PixelGeoModel        INFO ... Record Sets retrieved.
PixelGeoModel        INFO DBM switch = SetDBMFlag: 0
PixelGeoModel        INFO Building Pixel Detector
PixelGeoModel        INFO  Version: Pixel-GEO-13, Name: DC3, Layout: Final, Code Version: 5.01.00, Description: DC3 Geometry
GEOPIXELSERVICES pixel : 40 245 //  3460
GEOPIXELSERVICES barrel : 42 143 //  -460 460
GEOPIXELSERVICES endcap : 82 175 //  484 670
PixelGeoModel        INFO *** LAYER 0  planar/3D modules : 0 0
PixelGeoModel        INFO Layer 0 in/out radius 46.2723  64.1329
PixelGeoModel        INFO *** LAYER 1  planar/3D modules : 0 0
PixelGeoModel        INFO Layer 1 in/out radius 83.7078  102.132
PixelGeoModel        INFO *** LAYER 2  planar/3D modules : 0 0
PixelGeoModel        INFO Layer 2 in/out radius 117.51  136.132
Warning in material CabCoolEcD3. Mass fractions sum to 0.9999; renormalizing to 1.0
ToolSvc.InDetDD...   INFO Building BCM with Version Tag: ATLAS-R1-2012-03-01-00 at Node: ATLAS
ToolSvc.InDetDD...   INFO BCM Version: BCM-00  Package Version: BCM_GeoModel-00-02-07
ToolSvc.InDetDD...   INFO Building BLM with Version Tag: ATLAS-R1-2012-03-01-00 at Node: ATLAS
ToolSvc.InDetDD...   INFO BLM Version: BLM-00  Package Version: BLM_GeoModel-00-01-05
PixelGeoModel        INFO  Static run1 type alignment folder structure found
PixelDetectorMa...   INFO Registering alignment channel with key /Indet/Align/ID, level 2, with frame global.
PixelDetectorMa...   INFO Registering alignment channel with key /Indet/Align/PIX, level 1, with frame global.
PixelDetectorMa...   INFO Registering alignment channel with key /Indet/Align/PIXB1, level 0, with frame local.
PixelDetectorMa...   INFO Registering alignment channel with key /Indet/Align/PIXB2, level 0, with frame local.
PixelDetectorMa...   INFO Registering alignment channel with key /Indet/Align/PIXB3, level 0, with frame local.
PixelDetectorMa...   INFO Registering alignment channel with key /Indet/Align/PIXB4, level 0, with frame local.
PixelDetectorMa...   INFO Registering alignment channel with key /Indet/Align/PIXEA1, level 0, with frame local.
PixelDetectorMa...   INFO Registering alignment channel with key /Indet/Align/PIXEA2, level 0, with frame local.
PixelDetectorMa...   INFO Registering alignment channel with key /Indet/Align/PIXEA3, level 0, with frame local.
PixelDetectorMa...   INFO Registering alignment channel with key /Indet/Align/PIXEC1, level 0, with frame local.
PixelDetectorMa...   INFO Registering alignment channel with key /Indet/Align/PIXEC2, level 0, with frame local.
PixelDetectorMa...   INFO Registering alignment channel with key /Indet/Align/PIXEC3, level 0, with frame local.
GeoModelSvc.Pix...   INFO Lorentz angle service not requested.
GeoModelSvc          INFO GeoModelSvc.PixelDetectorTool	 SZ= 12676Kb 	 Time = 0.49S
GeoModelSvc.SCT...   INFO Building SCT with Version Tag: ATLAS-R1-2012-03-01-00 at Node: ATLAS
GeoModelSvc.SCT...   INFO SCT Version: SCT-GEO-01  Package Version: SCT_GeoModel-00-12-08
SCT_IDDetDescrCnv    INFO in createObj: creating a SCT_ID helper object in the detector store
SCT_ID               INFO Initialize from dictionary
AtlasDetectorID      INFO initialize_from_dictionary - OK
indet 1 2,4,5,7,10,11,12,13 7 1fffffffffffffff 61 3 0
sct1 1:3 3 e7ffffffffffffff 59 2 3
bec1 -2,0,2 3 f9ffffffffffffff 57 2 5
lay_disk0 0:8 f fe1fffffffffffff 53 4 7
phi_mod0 0:55 3f ffe07fffffffffff 47 6 11
eta_mod1 -6:6 f ffff87ffffffffff 43 4 17
side0 0:1 1 fffffbffffffffff 42 1 21
strip0 0:767 3ff fffffc00ffffffff 32 10 22
SCT_ID               INFO  SCT_ID::initialize_from_dict 
SCT_GeoModel         INFO Building SCT Detector.
SCT_GeoModel         INFO  Version: SCT-GEO-01, Name: GEO, Layout: Final, Code Version: 3.06.00, Description: Atlas Geometry 2008
SCT_GeoModel         INFO Retrieving Record Sets from database ...
SCT_GeoModel         INFO  Static run1 type alignment folder structure found
SCTDetectorManager   INFO Registering alignment channel with key /Indet/Align/ID, level 3, with frame global.
SCTDetectorManager   INFO Registering alignment channel with key /Indet/Align/SCT, level 2, with frame global.
SCTDetectorManager   INFO Registering alignment channel with key /Indet/Align/SCTB1, level 1, with frame local.
SCTDetectorManager   INFO Registering alignment channel with key /Indet/Align/SCTB2, level 1, with frame local.
SCTDetectorManager   INFO Registering alignment channel with key /Indet/Align/SCTB3, level 1, with frame local.
SCTDetectorManager   INFO Registering alignment channel with key /Indet/Align/SCTB4, level 1, with frame local.
SCTDetectorManager   INFO Registering alignment channel with key /Indet/Align/SCTEA1, level 1, with frame local.
SCTDetectorManager   INFO Registering alignment channel with key /Indet/Align/SCTEA2, level 1, with frame local.
SCTDetectorManager   INFO Registering alignment channel with key /Indet/Align/SCTEA3, level 1, with frame local.
SCTDetectorManager   INFO Registering alignment channel with key /Indet/Align/SCTEA4, level 1, with frame local.
SCTDetectorManager   INFO Registering alignment channel with key /Indet/Align/SCTEA5, level 1, with frame local.
SCTDetectorManager   INFO Registering alignment channel with key /Indet/Align/SCTEA6, level 1, with frame local.
SCTDetectorManager   INFO Registering alignment channel with key /Indet/Align/SCTEA7, level 1, with frame local.
SCTDetectorManager   INFO Registering alignment channel with key /Indet/Align/SCTEA8, level 1, with frame local.
SCTDetectorManager   INFO Registering alignment channel with key /Indet/Align/SCTEA9, level 1, with frame local.
SCTDetectorManager   INFO Registering alignment channel with key /Indet/Align/SCTEC1, level 1, with frame local.
SCTDetectorManager   INFO Registering alignment channel with key /Indet/Align/SCTEC2, level 1, with frame local.
SCTDetectorManager   INFO Registering alignment channel with key /Indet/Align/SCTEC3, level 1, with frame local.
SCTDetectorManager   INFO Registering alignment channel with key /Indet/Align/SCTEC4, level 1, with frame local.
SCTDetectorManager   INFO Registering alignment channel with key /Indet/Align/SCTEC5, level 1, with frame local.
SCTDetectorManager   INFO Registering alignment channel with key /Indet/Align/SCTEC6, level 1, with frame local.
SCTDetectorManager   INFO Registering alignment channel with key /Indet/Align/SCTEC7, level 1, with frame local.
SCTDetectorManager   INFO Registering alignment channel with key /Indet/Align/SCTEC8, level 1, with frame local.
SCTDetectorManager   INFO Registering alignment channel with key /Indet/Align/SCTEC9, level 1, with frame local.
GeoModelSvc.SCT...   INFO Lorentz angle service not requested.
GeoModelSvc          INFO GeoModelSvc.SCT_DetectorTool	 SZ= 13312Kb 	 Time = 0.32S
GeoModelSvc.TRT...   INFO Building TRT with Version Tag: ATLAS-R1-2012-03-01-00 at Node: ATLAS
GeoModelSvc.TRT...   INFO TRT Version: TRT-GEO-00  Package Version: TRT_GeoModel-00-02-70
GeoModelSvc.TRT...   INFO Creating the TRT
GeoModelSvc.TRT...   INFO TRT Geometry Options:
GeoModelSvc.TRT...   INFO   UseOldActiveGasMixture         = false
GeoModelSvc.TRT...   INFO   Do Argon    = false
GeoModelSvc.TRT...   INFO   Do Krypton  = false
GeoModelSvc.TRT...   INFO   DC2CompatibleBarrelCoordinates = false
GeoModelSvc.TRT...   INFO   InitialLayout                  = true
GeoModelSvc.TRT...   INFO   Alignable                      = true
GeoModelSvc.TRT...   INFO   VersioName                     = DC3
GeoModelSvc.TRT...   INFO  Building TRT geometry from GeoModel factory TRTDetectorFactory_Full
TRT_GeoModel      WARNING The folder of /TRT/Cond/StatusHT is NOT available, WHOLE TRT RUNNING XENON
TRT_GeoModel      WARNING Tool setup will force to NOT to use ARGON. Ignore this warning if you are running RECONSTRUCTION or DIGI, but cross-check if you are running SIMULATION
TRT_GeoModel      WARNING Tool setup will force to NOT to use KRYPTON. Ignore this warning if you are running RECONSTRUCTION or DIGI, but cross-check if you are running SIMULATION
TRT_IDDetDescrCnv    INFO in createObj: creating a TRT_ID helper object in the detector store
TRT_ID               INFO Initialize from dictionary msgSvc 0xb408e50
AtlasDetectorID      INFO initialize_from_dictionary - OK
TRT_GeoModel         INFO In TRT Detector Factory (For DC2 and later geometries)
TRT_GeoModel         INFO  Version: TRT-GEO-00, Name: DC3, Layout: Initial, Code Version: 4.01.01, Description: DC3 Geometry
TRT_GeoModel         INFO  Static run1 type alignment folder structure found
TRTDetectorManager   INFO Registering alignment channel with key /TRT/Align/TRT, level 3, with frame global.
TRTDetectorManager   INFO Registering alignment channel with key /TRT/Align/B0, level 2, with frame global.
TRTDetectorManager   INFO Registering alignment channel with key /TRT/Align/B1, level 2, with frame global.
TRTDetectorManager   INFO Registering alignment channel with key /TRT/Align/B2, level 2, with frame global.
TRTDetectorManager   INFO Registering alignment channel with key /TRT/Align/L2A, level 1, with frame global.
TRTDetectorManager   INFO Registering alignment channel with key /TRT/Align/L2C, level 1, with frame global.
GeoModelSvc          INFO GeoModelSvc.TRT_DetectorTool	 SZ= 22200Kb 	 Time = 0.25S
GeoModelSvc.InD...   INFO InDetServMat Package Version: InDetServMatGeoModel-00-04-32
GeoModelSvc.InD...   INFO Building Inner Detector Service Material. Version: CSC
GeoModelSvc          INFO GeoModelSvc.InDetServMatTool	 SZ= 0Kb 	 Time = 0.11S
GeoModelSvc.LAr...   INFO Keys for LAr are ATLAS-R1-2012-03-01-00  ATLAS
GeoModelSvc.LAr...   INFO Building LAr version LAr-Revised-14 while ATLAS version is ATLAS-R1-2012-03-01-00
GeoModelSvc.LAr...   INFO LAr Geometry Options:
GeoModelSvc.LAr...   INFO   Sagging           = false
GeoModelSvc.LAr...   INFO   Barrel            = ON
GeoModelSvc.LAr...   INFO   Endcap            = ON
LAr::DetectorFa...   INFO  new description with barrel croystat bolts
LAr::DetectorFa...   INFO  new coil bumper description 
BarrelConstruction   INFO Getting primary numbers for ATLAS, ATLAS-R1-2012-03-01-00
BarrelConstruction   INFO   Makes detailed absorber sandwich  ? 1 1
BarrelConstruction   INFO   Use sagging in geometry  ? 0
============== EMEC Construction ===============
  multi-layered version of absorbers activated, mlabs == 1
================================================
ClassIDSvc           INFO  getRegistryEntries: read 20528 CLIDRegistry entries for module ALL
CaloIDHelper_ID...   INFO in createObj: creating a TileTBID helper object in the detector store
TileTBID             INFO initialize_from_dictionary 
AtlasDetectorID      INFO initialize_from_dictionary - OK
EndcapDMConstru...   INFO Start building EC electronics geometry
============== EMEC Construction ===============
  multi-layered version of absorbers activated, mlabs == 1
================================================
EndcapDMConstru...   INFO Start building EC electronics geometry
GeoModelSvc          INFO GeoModelSvc.LArDetectorToolNV	 SZ= 30536Kb 	 Time = 4.11S
GeoModelSvc.Til...   INFO  Entering TileDetectorTool::create()
GeoModelSvc.Til...   INFO TileDddbManager: m_tag = ATLAS-R1-2012-03-01-00
GeoModelSvc.Til...   INFO TileDddbManager: n_tiglob = 5
GeoModelSvc.Til...   INFO TileDddbManager: n_timod = 320
GeoModelSvc.Til...   INFO TileDddbManager: n_cuts = 9
GeoModelSvc.Til...   INFO TileDddbManager: n_saddle = 1
GeoModelSvc.Til...   INFO TileDddbManager: n_tilb = 20
GeoModelSvc.Til...   INFO TileDddbManager: n_tileSwitches = 1
CaloIDHelper_ID...   INFO in createObj: creating a TileID helper object in the detector store
AtlasDetectorID      INFO initialize_from_dictionary - OK
TileNeighbour        INFO Reading file  /afs/cern.ch/atlas/software/builds/nightlies/devval/AtlasConditions/rel_2/InstallArea/x86_64-slc6-gcc49-opt/share/TileNeighbour_reduced.txt
CaloIDHelper_ID...   INFO in createObj: creating a CaloCell_ID helper object in the detector store
CaloIDHelper_ID...   INFO in createObj: creating a LArEM_ID helper object in the detector store
AtlasDetectorID      INFO initialize_from_dictionary - OK
CaloIDHelper_ID...   INFO in createObj: creating a LArHEC_ID helper object in the detector store
AtlasDetectorID      INFO initialize_from_dictionary - OK
CaloIDHelper_ID...   INFO in createObj: creating a LArFCAL_ID helper object in the detector store
AtlasDetectorID      INFO initialize_from_dictionary - OK
LArFCAL_Base_ID      INFO Reading file /afs/cern.ch/atlas/software/builds/nightlies/devval/AtlasConditions/rel_2/InstallArea/x86_64-slc6-gcc49-opt/share/FCal2DNeighbors-April2011.txt
LArFCAL_Base_ID      INFO Reading file /afs/cern.ch/atlas/software/builds/nightlies/devval/AtlasConditions/rel_2/InstallArea/x86_64-slc6-gcc49-opt/share/FCal3DNeighborsNext-April2011.txt
LArFCAL_Base_ID      INFO Reading file /afs/cern.ch/atlas/software/builds/nightlies/devval/AtlasConditions/rel_2/InstallArea/x86_64-slc6-gcc49-opt/share/FCal3DNeighborsPrev-April2011.txt
CaloIDHelper_ID...   INFO in createObj: creating a LArMiniFCAL_ID helper object in the detector store
AtlasDetectorID      INFO initialize_from_dictionary - OK
LArMiniFCAL_ID       INFO  initialize_from_dict - LArCalorimeter dictionary does NOT contain miniFCAL description. Unable to initialize LArMiniFCAL_ID.
AtlasDetectorID      INFO initialize_from_dictionary - OK
TileHWIDDetDesc...   INFO in createObj: creating a TileHWID helper object in the detector store
TileHWID             INFO initialize_from_dictionary 
AtlasDetectorID      INFO initialize_from_dictionary - OK
GeoModelSvc.Til...   INFO  U-shape parameter from database is: 1
GeoModelSvc.Til...   INFO  Entering TileAtlasFactory::create()
GeoModelSvc.Til...   INFO  Tile Geometry with Saddle supports, starting from TileCal-CSC-02 xxx
GeoModelSvc.Til...   INFO  => New BFingerLengthPos 430.5
GeoModelSvc.Til...   INFO  => New BFingerLengthNeg 420.5
GeoModelSvc.Til...   INFO  Positioning barrel with translation 0
GeoModelSvc.Til...   INFO  Positioning positive barrel finger with translation 3035.25
GeoModelSvc.Til...   INFO  Positioning negative barrel finger with translation -3030.25
GeoModelSvc.Til...   INFO  Positioning positive ext.barrel with translation 4854.75
GeoModelSvc.Til...   INFO  Positioning positive ext.barrel finger with translation ztrans= 6338.5
GeoModelSvc.Til...   INFO  Positioning positive ext.barrel saddle with translation ztrans= 6192.5
GeoModelSvc.Til...   INFO  Positive ITC envelope parameters: PLUG1  Rmin= 3438.85 Rmax= 4250 dzITC1= 154.5
GeoModelSvc.Til...   INFO                                    PLUG2  Rmin= 2981 Rmax= 3440 dzITC2= 47.425
GeoModelSvc.Til...   INFO  Positioning positive ITC with translation 3405
GeoModelSvc.Til...   INFO  Positioning positive Gap with translation 3552
GeoModelSvc.Til...   INFO  Positioning positive Crack with translation 3536
GeoModelSvc.Til...   INFO  Positioning negative ext.barrel with translation ztrans -4854.75
GeoModelSvc.Til...   INFO  Positioning negative ext.barrel finger with translation ztrans= -6338.5
GeoModelSvc.Til...   INFO  Positioning negative ext.barrel saddle with translation ztrans= -6192.5
GeoModelSvc.Til...   INFO  Negative ITC envelope parameters: PLUG1  Rmin= 3438.85 Rmax= 4250 dzITC1= 154.5
GeoModelSvc.Til...   INFO                                    PLUG2  Rmin= 2981 Rmax= 3440 dzITC2= 47.425
GeoModelSvc.Til...   INFO  Positioning negative ITC with translation -3405
GeoModelSvc.Til...   INFO  Positioning negative Gap with translation -3552
GeoModelSvc.Til...   INFO  Positioning negative Crack with translation -3536
GeoModelSvc.Til...   INFO  Global positioning of barrel with rotation (0,0,0)) and translation (0,0,0) CLHEP::cm
GeoModelSvc.Til...   INFO  Global positioning of positive ext.barrel with rotation (0,0,0)) and translation (0,0,0) CLHEP::cm
GeoModelSvc.Til...   INFO  Global positioning of negative ext.barrel with rotation (0,0,0)) and translation (0,0,1) CLHEP::cm
GeoModelSvc.Til...   INFO  TileDetDescrManager: entering create_elements() 
GeoModelSvc          INFO GeoModelSvc.TileDetectorTool	 SZ= 14764Kb 	 Time = 1S
GeoModelSvc.Muo...   INFO create MuonDetectorTool - package version = MuonGeoModel-01-09-13
GeoModelSvc.Muo...   INFO (from GeoModelSvc)    AtlasVersion = <ATLAS-R1-2012-03-01-00>  MuonVersion = <>
GeoModelSvc.Muo...   INFO Keys for Muon Switches are  (key) ATLAS-R1-2012-03-01-00 (node) ATLAS
GeoModelSvc.Muo...   INFO (from GeoModelSvc) in AtlasVersion = <ATLAS-R1-2012-03-01-00>  default MuonVersion is <MuonSpectrometer-R.06.04>
GeoModelSvc.Muo...   INFO Properties have been set as follows: 
GeoModelSvc.Muo...   INFO     LayoutName                     R
GeoModelSvc.Muo...   INFO     IncludeCutouts                 0
GeoModelSvc.Muo...   INFO     IncludeCutoutsBog              0
GeoModelSvc.Muo...   INFO     IncludeCtbBis                  0
GeoModelSvc.Muo...   INFO     ControlAlines                  111111
GeoModelSvc.Muo...   INFO     MinimalGeoFlag                 0
GeoModelSvc.Muo...   INFO     EnableCscIntAlignment          0
GeoModelSvc.Muo...   INFO     EnableCscIntAlignmentFromGM    1
GeoModelSvc.Muo...   INFO     ControlCscIntAlines   reset to 0
GeoModelSvc.Muo...   INFO     EnableMdtDeformations          0
GeoModelSvc.Muo...   INFO     EnableMdtAsBuiltParameters     0
MuonGeoModel         INFO MuonDetectorFactory - constructor  MuonSystem OuterRadius 13000 Length 22030
MuGM:MuonFactory     INFO MuonLayout set to <R.06.04> = Development version for DC3 - infrastructures 
MuGM:MuonFactory     INFO                    BOG cutouts are activated 1 , all other cutouts are disabled 1
MuGM:MuonFactory     INFO Manager created for geometry version R.06.04 from DB MuonVersion <MuonSpectrometer-R.06.04>
MuonGeoModel_MYSQL   INFO GeometryVersion set to <R.06.04>
MuGM:MuonFactory     INFO Mysql helper class created here for geometry version R.06.04 from DB MuonVersion <MuonSpectrometer-R.06.04>
MuGM:MuonFactory     INFO MDTIDHELPER retrieved from DetStore
MDT_IDDetDescrCnv    INFO in createObj: creating a MdtIdHelper object in the detector store
AtlasDetectorIDHelper::initialize_from_dictionary - Warning: unable to find mm region index: group, region size 0 0
AtlasDetectorIDHelper::initialize_from_dictionary - Warning: unable to find stgc region index: group, region size 0 0
AtlasDetectorID::initLevelsFromDict - there are no sTGC entries in the dictionary! 
AtlasDetectorID::initLevelsFromDict - there are no MM entries in the dictionary! 
 AtlasDetectorID::initialize_from_dictionary - OK 
MdtIdHelper          INFO MultiRange built successfully to Technology: MultiRange size is 203
MdtIdHelper          INFO MultiRange built successfully to detector element: Multilayer MultiRange size is 234
MdtIdHelper          INFO MultiRange built successfully to tube: MultiRange size is 234
MdtIdHelper          INFO Initializing MDT hash indices ... 
MdtIdHelper          INFO The element hash max is 1172
MdtIdHelper          INFO The detector element hash max is 2296
MdtIdHelper          INFO Initializing MDT hash indices for finding neighbors ... 
MuGM:MuonFactory     INFO RPCIDHELPER retrieved from DetStore
RPC_IDDetDescrCnv    INFO in createObj: creating a RpcIdHelper object in the detector store
AtlasDetectorIDHelper::initialize_from_dictionary - Warning: unable to find mm region index: group, region size 0 0
AtlasDetectorIDHelper::initialize_from_dictionary - Warning: unable to find stgc region index: group, region size 0 0
AtlasDetectorID::initLevelsFromDict - there are no sTGC entries in the dictionary! 
AtlasDetectorID::initLevelsFromDict - there are no MM entries in the dictionary! 
 AtlasDetectorID::initialize_from_dictionary - OK 
RpcIdHelper          INFO MultiRange built successfully to doubletR: MultiRange size is 234
RpcIdHelper          INFO MultiRange built successfully to detectorElement: DetectorElement MultiRange size is 234
RpcIdHelper          INFO MultiRange built successfully to rpcStrip: MultiRange size is 234
RpcIdHelper          INFO Initializing RPC hash indices ... 
RpcIdHelper          INFO The element hash max is 594
RpcIdHelper          INFO The detector element hash max is 1116
RpcIdHelper          INFO Initializing RPC hash indices for finding neighbors ... 
MuGM:MuonFactory     INFO TGCIDHELPER retrieved from DetStore
TGC_IDDetDescrCnv    INFO in createObj: creating a TgcIdHelper object in the detector store
AtlasDetectorIDHelper::initialize_from_dictionary - Warning: unable to find mm region index: group, region size 0 0
AtlasDetectorIDHelper::initialize_from_dictionary - Warning: unable to find stgc region index: group, region size 0 0
AtlasDetectorID::initLevelsFromDict - there are no sTGC entries in the dictionary! 
AtlasDetectorID::initLevelsFromDict - there are no MM entries in the dictionary! 
 AtlasDetectorID::initialize_from_dictionary - OK 
TgcIdHelper          INFO MultiRange built successfully to Technology: MultiRange size is 203
TgcIdHelper          INFO MultiRange built successfully to detector element: Multilayer MultiRange size is 203
TgcIdHelper          INFO MultiRange built successfully to channel: MultiRange size is 234
TgcIdHelper          INFO Initializing TGC hash indices ... 
TgcIdHelper          INFO The element hash max is 1578
TgcIdHelper          INFO The detector element hash max is 1578
TgcIdHelper          INFO Initializing TGC hash indices for finding neighbors ... 
MuGM:MuonFactory     INFO CSCIDHELPER retrieved from DetStore
CSC_IDDetDescrCnv    INFO in createObj: creating a CcscIdHelper object in the detector store
AtlasDetectorIDHelper::initialize_from_dictionary - Warning: unable to find mm region index: group, region size 0 0
AtlasDetectorIDHelper::initialize_from_dictionary - Warning: unable to find stgc region index: group, region size 0 0
AtlasDetectorID::initLevelsFromDict - there are no sTGC entries in the dictionary! 
AtlasDetectorID::initLevelsFromDict - there are no MM entries in the dictionary! 
 AtlasDetectorID::initialize_from_dictionary - OK 
CscIdHelper          INFO MultiRange built successfully to Technology: MultiRange size is 203
CscIdHelper          INFO MultiRange built successfully to detector element: Multilayer MultiRange size is 230
CscIdHelper          INFO MultiRange built successfully to cscStrip: MultiRange size is 234
CscIdHelper          INFO Initializing CSC hash indices ... 
CscIdHelper          INFO The element hash max is 32
CscIdHelper          INFO The detector element hash max is 64
CscIdHelper          INFO The channel hash max is 61440
CscIdHelper          INFO Initializing CSC hash indices for finding neighbors ... 
MuGM:MuonFactory     INFO STGCIDHELPER retrieved from DetStore
sTGC_IDDetDescrCnv   INFO in createObj: creating a sTgcIdHelper object in the detector store
AtlasDetectorIDHelper::initialize_from_dictionary - Warning: unable to find mm region index: group, region size 0 0
AtlasDetectorIDHelper::initialize_from_dictionary - Warning: unable to find stgc region index: group, region size 0 0
AtlasDetectorID::initLevelsFromDict - there are no sTGC entries in the dictionary! 
AtlasDetectorID::initLevelsFromDict - there are no MM entries in the dictionary! 
 AtlasDetectorID::initialize_from_dictionary - OK 
MuGM:MuonFactory     INFO MMIDHELPER retrieved from DetStore
MM_IDDetDescrCnv     INFO in createObj: creating a MmIdHelper object in the detector store
AtlasDetectorIDHelper::initialize_from_dictionary - Warning: unable to find mm region index: group, region size 0 0
AtlasDetectorIDHelper::initialize_from_dictionary - Warning: unable to find stgc region index: group, region size 0 0
AtlasDetectorID::initLevelsFromDict - there are no sTGC entries in the dictionary! 
AtlasDetectorID::initLevelsFromDict - there are no MM entries in the dictionary! 
 AtlasDetectorID::initialize_from_dictionary - OK 
MuGM:MuonFactory     INFO  **************** MuonDetectorFactory001 ************************
MuGM:MuonFactory     INFO  *** Start building the Muon Geometry Tree **********************
MuGM:RDBReadAtlas    INFO Start retriving dbObjects with tag = <ATLAS-R1-2012-03-01-00> node <ATLAS>
MuGM:RDBReadAtlas    INFO After getQuery XtomoData
In DblQ00Xtomo(data)
No XtomoData table in the MuonDD Database
MuGM:RDBReadAtlas    INFO After new DblQ00Xtomo
MuGM:RDBReadAtlas    INFO After m_dhxtomo.data()
MuGM:RDBReadAtlas    INFO No Ascii aszt input found: looking for A-lines in ORACLE
MuGM:RDBReadAtlas    INFO ASZT table found in Oracle
MuGM:RDBReadAtlas    INFO ASZT size is 32
MuGM:RDBReadAtlas    INFO No Ascii iacsc input found: looking for A-lines in ORACLE
MuGM:RDBReadAtlas    INFO ISZT table found in Oracle
MuGM:RDBReadAtlas    INFO Access granted for all dbObjects needed by muon detectors
MuonGeoModel_MYSQL   INFO LayoutName (from DBAM) set to <R.06>  -- relevant for CTB2004
MuGM:ProcStations    INFO  Processing Stations and Components
MuGM:ProcStations    INFO  Processing Stations and Components DONE
MuGM:ProcTechnol.s   INFO nMDT 8 nCSC 2 nTGC 22 nRPC 22
MuGM:ProcTechnol.s   INFO nDED 2 nSUP 4 nSPA 2
MuGM:ProcTechnol.s   INFO nCHV 5 nCRO 5 nCMI 4 nLBI 4
MuGM:ProcPosition    INFO  *** N. of stations positioned in the setup 226
MuGM:ProcPosition    INFO  *** N. of stations described in mysql      226
MuGM:ProcPosition    INFO  *** N. of types  30 size of jtypvec 30
MuGM:ProcPosition    INFO  *** : 226 kinds of stations (type*sub_type) 
MuGM:ProcPosition    INFO  *** : 1740 physical stations in space - according to the MuonDD DataBase
MuGM:ProcCutouts     INFO  Processing Cutouts for geometry layout R.06
MuGM:ProcCutouts     INFO  Processing Cutouts DONE
MuGM:RDBReadAtlas    INFO  ProcessTGCreadout - version 7 wirespacing 1.8
MGM::MuonDetect...   INFO Creating now the CscInternalAlignmentMapContainer
MuGM:RDBReadAtlas    INFO Intermediate Objects built from primary numbers
MuGM:MuonFactory     INFO  theMaterialManager retrieven successfully from the DetStore
MuGM:MuonFactory     INFO MuonSystem description from OracleTag=<ATLAS-R1-2012-03-01-00> and node=<ATLAS>
MuGM:MuonFactory     INFO  TreeTop added to the Manager
MuGM:MuonFactory     INFO  Muon Layout R.06.04
MuGM:MuonFactory     INFO Fine Clash Fixing disabled: (should be ON/OFF for Simulation/Reconstruction)
MuGM:MuonFactory     INFO  **************** MuonDetectorFactory001 ****************************
MuGM:MuonFactory     INFO  *** The Muon Chamber Geometry Tree is built with 
MuGM:MuonFactory     INFO  *** 1740 child volumes 
MuGM:MuonFactory     INFO  *** 1729 independent elements and 
MuGM:MuonFactory     INFO  *** 11375 elements cloned or shared 
MuGM:MuonFactory     INFO  *** 226 kinds of stations
MuGM:MuonFactory     INFO  *** 1740 stations with alignable transforms
MuGM:MuonFactory     INFO  *** 136 stations are described as Assemblies
MuGM:MuonFactory     INFO  *** 1740 MuonStations 
MuGM:MuonFactory     INFO  *** 	 2292 MDT Readout Elements 	 1170 MDT Detector Elements 
MuGM:MuonFactory     INFO  *** 	 32 CSC Readout Elements 	 32 CSC Detector Elements 
MuGM:MuonFactory     INFO  *** 	 1116 RPC Readout Elements 	 594 RPC Detector Elements 
MuGM:MuonFactory     INFO  *** 	 1578 TGC Readout Elements 	 1578 TGC Detector Elements 
MuGM:MuonFactory     INFO  ********************************************************************
MuGM:MuonFactory     INFO  *** Inert Material built according to DB switches and config. ****** 
MuGM:MuonFactory     INFO  *** The Muon Geometry Tree has 1740 child vol.s in total ********
MuGM:MuonFactory     INFO  ********************************************************************

MGM::MuonDetect...   INFO Init A/B Line Containers - done - size is respectively 1740/0
MGM::MuonDetect...   INFO I-Line for CSC wire layers loaded (Csc Internal Alignment)
MGM::MuonDetect...   INFO According to configuration parameters they WILL BE UPDATED FROM CONDDB 
GeoModelSvc          INFO GeoModelSvc.MuonDetectorTool	 SZ= 33000Kb 	 Time = 1.11S
GeoModelSvc.Bea...   INFO Building Beam Pipe
GeoModelSvc          INFO GeoModelSvc.BeamPipeDetectorTool	 SZ= 1024Kb 	 Time = 0.01S
CORAL/Services/ConnectionService Info User session with sessionID=S#5(C#8.s#1) will be ended on connectionID=C#8
CORAL/Services/ConnectionService Info Connection to service "ATLF/()" with connectionID=C#8 will be disconnected
GeoModelSvc.Pix...WARNING Unable to register callback on global Container with folder /Indet/AlignL1/ID
GeoModelSvc.Pix...WARNING Unable to register callback on global Container with folder /Indet/AlignL2/PIX
GeoModelSvc.Pix...WARNING Unable to register callback on AlignableTransformContainer with folder /Indet/AlignL3
ClassIDSvc           INFO  getRegistryEntries: read 36 CLIDRegistry entries for module ALL
GeoModelSvc.SCT...WARNING Unable to register callback on global Container with folder /Indet/AlignL1/ID
GeoModelSvc.SCT...WARNING Unable to register callback on global Container with folder /Indet/AlignL2/SCT
GeoModelSvc.SCT...WARNING Unable to register callback on AlignableTransformContainer with folder /Indet/AlignL3
GeoModelSvc.TRT...WARNING Unable to register callback on global Container with folder /TRT/AlignL1/TRT
GeoModelSvc.TRT...WARNING Unable to register callback on AlignableTransformContainer with folder /TRT/AlignL2
GeoModelSvc.Muo...   INFO Register call-back  against 0 folders listed below 
GeoModelSvc.Muo...   INFO CondAttrListCollection not found in the DetectorStore
GeoModelSvc.Muo...   INFO Unable to register callback on CondAttrListCollection for any folder in the list 
GeoModelSvc.Muo...   INFO This is OK unless you expect to read alignment and deformations from COOL 
ClassIDSvc           INFO  getRegistryEntries: read 61 CLIDRegistry entries for module ALL
TileInfoLoader       INFO Initializing....TileInfoLoader
TileInfoLoader       INFO TileInfoLoader in geoInit() ...
TileInfoLoader       INFO New ATLAS geometry detected: ATLAS-R1-2012-03-01-00 (01-0-0)
TileInfoLoader       INFO Changing TTL1 calib from 4.1 to 6.9
TileInfoLoader       INFO Changing TTL1 noise sigma from 2.5 to 2.8
TileInfoLoader       INFO ATLAS geometry 1 >= 140000 - special sampling fractions for gap/crack scin are allowed
TileInfoLoader       INFO Special C10 in EB module 39
TileInfoLoader       INFO Special C10 in EB module 40
TileInfoLoader       INFO Special C10 in EB module 41
TileInfoLoader       INFO Special C10 in EB module 42
TileInfoLoader       INFO Special C10 in EB module 55
TileInfoLoader       INFO Special C10 in EB module 56
TileInfoLoader       INFO Special C10 in EB module 57
TileInfoLoader       INFO Special C10 in EB module 58
TileInfoLoader       INFO Sampling fraction for normal cells 1/34
TileInfoLoader       INFO Sampling fraction for special C10 cells 1/45
TileInfoLoader       INFO Sampling fraction for E1 cells 1/125
TileInfoLoader       INFO Sampling fraction for E2 cells 1/107
TileInfoLoader       INFO Sampling fraction for E3 cells 1/97
TileInfoLoader       INFO Sampling fraction for E4 cells 1/75
TileInfoLoader       INFO Sampling fraction for E4' cells 1/75
TileInfoLoader       INFO Reading file  /afs/cern.ch/atlas/software/builds/nightlies/devval/AtlasConditions/rel_2/InstallArea/x86_64-slc6-gcc49-opt/share/pulsehi_physics.dat
TileInfoLoader       INFO Reading file  /afs/cern.ch/atlas/software/builds/nightlies/devval/AtlasConditions/rel_2/InstallArea/x86_64-slc6-gcc49-opt/share/pulselo_physics.dat
TileInfoLoader       INFO Reading file  /afs/cern.ch/atlas/software/builds/nightlies/devval/AtlasConditions/rel_2/InstallArea/x86_64-slc6-gcc49-opt/share/pulse_adder_tower_physics.dat
TileInfoLoader       INFO Reading file  /afs/cern.ch/atlas/software/builds/nightlies/devval/AtlasConditions/rel_2/InstallArea/x86_64-slc6-gcc49-opt/share/pulse_adder_muonRcv_physics.dat
TileInfoLoader       INFO Reading file  /afs/cern.ch/atlas/software/builds/nightlies/devval/AtlasConditions/rel_2/InstallArea/x86_64-slc6-gcc49-opt/share/pulse_adder_muon_physics.dat
CaloIDHelper_ID...   INFO in createObj: creating a CaloLVL1_ID helper object in the detector store
CaloLVL1_ID          INFO initialize_from_dictionary
AtlasDetectorID      INFO initialize_from_dictionary - OK
TileCablingSvc       INFO RUN1 ATLAS geometry detected: ATLAS-R1-2012-03-01-00
TileCablingSvc       INFO Setting Cabling type to 2
ToolSvc.TileCon...   INFO Creating TileCondProxyFile(ToolSvc.TileCondToolEmscale.TileCondProxyFile_OflCisLin) for ASCII file name: "/afs/cern.ch/atlas/software/builds/nightlies/devval/AtlasConditions/rel_2/InstallArea/x86_64-slc6-gcc49-opt/share/TileDefault.cisFitLin"
ToolSvc.TileCon...   INFO Creating TileCondProxyFile(ToolSvc.TileCondToolEmscale.TileCondProxyFile_OflCisNln) for ASCII file name: "/afs/cern.ch/atlas/software/builds/nightlies/devval/AtlasConditions/rel_2/InstallArea/x86_64-slc6-gcc49-opt/share/TileDefault.cisFitNln"
ToolSvc.TileCon...   INFO Creating TileCondProxyFile(ToolSvc.TileCondToolEmscale.TileCondProxyFile_OflLasLin) for ASCII file name: "/afs/cern.ch/atlas/software/builds/nightlies/devval/AtlasConditions/rel_2/InstallArea/x86_64-slc6-gcc49-opt/share/TileDefault.lasLin"
ToolSvc.TileCon...   INFO Creating TileCondProxyFile(ToolSvc.TileCondToolEmscale.TileCondProxyFile_OflLasNln) for ASCII file name: "/afs/cern.ch/atlas/software/builds/nightlies/devval/AtlasConditions/rel_2/InstallArea/x86_64-slc6-gcc49-opt/share/TileDefault.lasNln"
ToolSvc.TileCon...   INFO Creating TileCondProxyFile(ToolSvc.TileCondToolEmscale.TileCondProxyFile_OflCes) for ASCII file name: "/afs/cern.ch/atlas/software/builds/nightlies/devval/AtlasConditions/rel_2/InstallArea/x86_64-slc6-gcc49-opt/share/TileDefault.ces"
ToolSvc.TileCon...   INFO Creating TileCondProxyFile(ToolSvc.TileCondToolEmscale.TileCondProxyFile_OflEms) for ASCII file name: "/afs/cern.ch/atlas/software/builds/nightlies/devval/AtlasConditions/rel_2/InstallArea/x86_64-slc6-gcc49-opt/share/TileDefault.ems"
ToolSvc.TileCon...   INFO Creating TileCondProxyFile(ToolSvc.TileCondToolEmscale.TileCondProxyFile_OflLasFib) for ASCII file name: "/afs/cern.ch/atlas/software/builds/nightlies/devval/AtlasConditions/rel_2/InstallArea/x86_64-slc6-gcc49-opt/share/TileDefault.lasFib"
ToolSvc.TileCon...   INFO ProxyOflLasFib is set up and can be used
ToolSvc.TileCon...   INFO Loading of online calibration folders not requested, since OnlCacheUnit=Invalid
ToolSvc.TileCon...   INFO Creating TileCondProxyFile(ToolSvc.TileCondToolNoiseSample.TileCondProxyFile_NoiseSample) for ASCII file name: "/afs/cern.ch/atlas/software/builds/nightlies/devval/AtlasConditions/rel_2/InstallArea/x86_64-slc6-gcc49-opt/share/TileDefault.ped"
ToolSvc.TileCon...   INFO Creating TileCondProxyFile(ToolSvc.TileCondToolTiming.TileCondProxyFile_AdcOffset) for ASCII file name: "/afs/cern.ch/atlas/software/builds/nightlies/devval/AtlasConditions/rel_2/InstallArea/x86_64-slc6-gcc49-opt/share/TileDefault.tcphy"
ToolSvc.TileCon...   INFO TileCondToolTiming::recache() has been triggered by: 'ASCII files' 
TileInfoLoader       INFO Placed TileInfo object in the detector store.
ToolSvc.TileBad...   INFO Creating TileCondProxyFile(ToolSvc.TileBadChanTool.TileCondProxyFile_OnlBch) for ASCII file name: "/afs/cern.ch/atlas/software/builds/nightlies/devval/AtlasConditions/rel_2/InstallArea/x86_64-slc6-gcc49-opt/share/TileDefault.onlBch"
ToolSvc.TileBad...   INFO Creating TileCondProxyFile(ToolSvc.TileBadChanTool.TileCondProxyFile_OflBch) for ASCII file name: "/afs/cern.ch/atlas/software/builds/nightlies/devval/AtlasConditions/rel_2/InstallArea/x86_64-slc6-gcc49-opt/share/TileDefault.oflBch"
ToolSvc.TileBad...   INFO ProxyOnlBch and ProxyOflBch will be used for bad channel status
ToolSvc.TileBad...   INFO TileBadChanTool::recache() has been triggered by: 'ASCII files' 
ToolSvc.TileBad...   INFO No TileBchStatus::isBad() definition found in DB, using defaults
ToolSvc.TileBad...   INFO No TileBchStatus::isNoisy() definition found in DB, using defaults
ToolSvc.TileBad...   INFO No TileBchStatus::isNoGainL1() definition found in DB, using defaults
ToolSvc.TileBad...   INFO No TileBchStatus::isBadTiming() definition found in DB, using defaults
ToolSvc.TileBad...   INFO TileBchStatus::isBad() is defined by: ADC masked (unspecified); ADC dead; Very large HF noise; No data; Wrong DSP configuration; Severe stuck bit; Severe data corruption; Channel masked (unspecified); No PMT connected; No HV; Wrong HV; Online ADC masked (unspecified); 
ToolSvc.TileBad...   INFO TileBchStatus::isNoisy() is defined by: Large HF noise; Correlated noise; Large LF noise; 
ToolSvc.TileBad...   INFO TileBchStatus::isNoGainL1() is defined by: ADC dead; No PMT connected; No HV; Channel masked for LV1 (unspecified); LV1 channel no gain; LV1 channel noisy; <no description available>; 
ToolSvc.TileBad...   INFO TileBchStatus::isBadTiming() is defined by: Bad timing; Online bad timing; 
ToolSvc.TileBad...   INFO No drawer trips probabilities found in DB
AthenaEventLoopMgr   INFO Initializing AthenaEventLoopMgr - package version AthenaServices-01-60-14
AthMasterSeq         INFO Member list: AthSequencer/AthAlgSeq, AthSequencer/AthOutSeq, AthSequencer/AthRegSeq
AthAlgSeq            INFO Member list: PyAthena::Alg/dumper
PyComponentMgr       INFO Initializing PyComponentMgr...
dumper               INFO Initializing dumper...
HistogramPersis...WARNING Histograms saving not required.
AthenaEventLoopMgr   INFO Setup EventSelector service EventSelector
ActiveStoreSvc       INFO Initializing ActiveStoreSvc - package version StoreGate-03-06-43
ApplicationMgr       INFO Application Manager Initialized successfully
InputMetaDataStore   INFO Start InputMetaDataStore
MetaDataStore        INFO Start MetaDataStore
TagMetaDataStore     INFO Start TagMetaDataStore
/afs/cern.ch/atlas/maxidisk/d33/referencefiles/aod/AOD-16.0.3.3/AOD-16.0.3.3-full.pool.root Info Database being retired...
Domain[ROOT_All] Info ->  Deaccess DbDatabase   READ      [ROOT_All] 48D7B5A4-1E0D-E011-B6D0-003048F0E778
Domain[ROOT_All] Info >   Deaccess DbDomain     READ      [ROOT_All] 
RootCollection Info Opening Collection File /afs/cern.ch/atlas/maxidisk/d33/referencefiles/aod/AOD-16.0.3.3/AOD-16.0.3.3-full.pool.root in mode: READ
RootCollection Info File /afs/cern.ch/atlas/maxidisk/d33/referencefiles/aod/AOD-16.0.3.3/AOD-16.0.3.3-full.pool.root opened
DbSession Info     Open     DbSession    
Domain[ROOT_All] Info >   Access   DbDomain     READ      [ROOT_All] 
Domain[ROOT_All] Info ->  Access   DbDatabase   READ      [ROOT_All] 48D7B5A4-1E0D-E011-B6D0-003048F0E778
Domain[ROOT_All] Info                           /afs/cern.ch/atlas/maxidisk/d33/referencefiles/aod/AOD-16.0.3.3/AOD-16.0.3.3-full.pool.root
RootDatabase.open Success /afs/cern.ch/atlas/maxidisk/d33/referencefiles/aod/AOD-16.0.3.3/AOD-16.0.3.3-full.pool.root File version:52600
PoolSvc              INFO Failed to find container POOLContainer(DataHeader) to create POOL collection.
ImplicitCollection Info Opened the implicit collection with connection string "PFN:/afs/cern.ch/atlas/maxidisk/d33/referencefiles/aod/AOD-16.0.3.3/AOD-16.0.3.3-full.pool.root"
ImplicitCollection Info and a name "POOLContainer_DataHeader"
ClassIDSvc           INFO  getRegistryEntries: read 703 CLIDRegistry entries for module ALL
StoreGateSvc         INFO Start StoreGateSvc
ConditionStore       INFO Start ConditionStore
DetectorStore        INFO Start DetectorStore
ApplicationMgr       INFO Application Manager Started successfully
PoolSvc              INFO Failed to find container MetaDataHdr(DataHeader) to get Token.
PoolSvc              INFO Failed to find container MetaDataHdr(DataHeader) to get Token.
AthenaEventLoopMgr   INFO   ===>>>  start of run 105200    <<<===
EventPersistenc...   INFO Added successfully Conversion service:TagInfoMgr
IOVDbSvc             INFO Global tag: OFLCOND-DR-BS7T-ANom-11 set from input file
ClassIDSvc           INFO  getRegistryEntries: read 11 CLIDRegistry entries for module ALL
IOVDbSvc             INFO Opening COOL connection for COOLOFL_INDET/OFLP200
RalSessionMgr Info Instantiate a R/O RalSessionMgr for 'COOLOFL_INDET/OFLP200'
RalSessionMgr Info Connect to the database server
CORAL/Services/ConnectionService Info Re-ordering 3 replicas using installed algorithm
CORAL/Services/ConnectionService Info Sorting algorithm selected 4 replicas
CORAL/Services/ConnectionService Warning Failed to connect to service sqlite200/ALLP200.db (coral::Exception): 'CORAL/RelationalPlugins/sqlite ( CORAL : "Connection::connect" from "/afs/cern.ch/work/s/ssnyder/builds/atlas-work3e/build-x86_64-slc6-gcc49-opt/Trigger/TrigEvent/TrigEventAthenaPool/unitTestRun/TrigEventAthenaPool_16.0.3.3/sqlite200 is not writable" )' - do NOT retry
CORAL/Services/ConnectionService Info Connection to service "sqlite200/ALLP200.db" with connectionID=C#9 will be disconnected
CORAL/Services/ConnectionService Warning Failure while attempting to connect to "sqlite_file:sqlite200/ALLP200.db": CORAL/RelationalPlugins/sqlite ( CORAL : "Connection::connect" from "/afs/cern.ch/work/s/ssnyder/builds/atlas-work3e/build-x86_64-slc6-gcc49-opt/Trigger/TrigEvent/TrigEventAthenaPool/unitTestRun/TrigEventAthenaPool_16.0.3.3/sqlite200 is not writable" )
CORAL/RelationalPlugins/frontier Info The current compresion level is 5
CORAL/Services/ConnectionService Info New connection to service "ATLF/()" with connectionID=C#10 has been connected
CORAL/Services/ConnectionService Info New user session with sessionID=S#6(C#10.s#1) started on connectionID=C#10 to service "ATLF/()" for user "" in read-only mode
RalSessionMgr Info Start a read-only transaction active for the duration of the database connection
RelationalDatabase Info Instantiate a R/O RalDatabase for 'COOLOFL_INDET/OFLP200'
RelationalDatabase Info Release number backward compatibility - NO SCHEMA EVOLUTION REQUIRED: database with OLDER release number 2.8.0 will be opened using CURRENT client release number 3.1.3
IOVDbSvc             INFO HVS tag OFLCOND-DR-BS7T-ANom-11 resolved to InDetAlign_Nominal for folder /Indet/Align
IOVDbSvc             INFO HVS tag OFLCOND-DR-BS7T-ANom-11 resolved to IBLDist-NULL for folder /Indet/IBLDist
IOVDbSvc             INFO HVS tag OFLCOND-DR-BS7T-ANom-11 resolved to InDetPixelDist-000-00 for folder /Indet/PixelDist
IOVDbSvc             INFO Disconnecting from COOLOFL_INDET/OFLP200
RalSessionMgr Info Commit the read-only transaction active for the duration of the database connection
RalSessionMgr Info Disconnect from the database server
CORAL/Services/ConnectionService Info User session with sessionID=S#6(C#10.s#1) will be ended on connectionID=C#10
CORAL/Services/ConnectionService Info Connection to service "ATLF/()" with connectionID=C#10 will be disconnected
RelationalDatabase Info Delete the RalDatabase for 'COOLOFL_INDET/OFLP200'
RalSessionMgr Info Delete the RalSessionMgr for 'COOLOFL_INDET/OFLP200'
IOVDbSvc             INFO Opening COOL connection for COOLOFL_LAR/OFLP200
RalSessionMgr Info Instantiate a R/O RalSessionMgr for 'COOLOFL_LAR/OFLP200'
RalSessionMgr Info Connect to the database server
CORAL/Services/ConnectionService Info Re-ordering 3 replicas using installed algorithm
CORAL/Services/ConnectionService Info Sorting algorithm selected 4 replicas
CORAL/Services/ConnectionService Warning Failed to connect to service sqlite200/ALLP200.db (coral::Exception): 'CORAL/RelationalPlugins/sqlite ( CORAL : "Connection::connect" from "/afs/cern.ch/work/s/ssnyder/builds/atlas-work3e/build-x86_64-slc6-gcc49-opt/Trigger/TrigEvent/TrigEventAthenaPool/unitTestRun/TrigEventAthenaPool_16.0.3.3/sqlite200 is not writable" )' - do NOT retry
CORAL/Services/ConnectionService Info Connection to service "sqlite200/ALLP200.db" with connectionID=C#11 will be disconnected
CORAL/Services/ConnectionService Warning Failure while attempting to connect to "sqlite_file:sqlite200/ALLP200.db": CORAL/RelationalPlugins/sqlite ( CORAL : "Connection::connect" from "/afs/cern.ch/work/s/ssnyder/builds/atlas-work3e/build-x86_64-slc6-gcc49-opt/Trigger/TrigEvent/TrigEventAthenaPool/unitTestRun/TrigEventAthenaPool_16.0.3.3/sqlite200 is not writable" )
CORAL/RelationalPlugins/frontier Info The current compresion level is 5
CORAL/Services/ConnectionService Info New connection to service "ATLF/()" with connectionID=C#12 has been connected
CORAL/Services/ConnectionService Info New user session with sessionID=S#7(C#12.s#1) started on connectionID=C#12 to service "ATLF/()" for user "" in read-only mode
RalSessionMgr Info Start a read-only transaction active for the duration of the database connection
RelationalDatabase Info Instantiate a R/O RalDatabase for 'COOLOFL_LAR/OFLP200'
RelationalDatabase Info Release number backward compatibility - NO SCHEMA EVOLUTION REQUIRED: database with OLDER release number 2.7.0 will be opened using CURRENT client release number 3.1.3
IOVDbSvc             INFO HVS tag OFLCOND-DR-BS7T-ANom-11 resolved to LARAlign-2009-01 for folder /LAR/Align
IOVDbSvc             INFO HVS tag OFLCOND-DR-BS7T-ANom-11 resolved to LArCellPositionShift-ideal for folder /LAR/LArCellPositionShift
IOVDbSvc             INFO Disconnecting from COOLOFL_LAR/OFLP200
RalSessionMgr Info Commit the read-only transaction active for the duration of the database connection
RalSessionMgr Info Disconnect from the database server
CORAL/Services/ConnectionService Info User session with sessionID=S#7(C#12.s#1) will be ended on connectionID=C#12
CORAL/Services/ConnectionService Info Connection to service "ATLF/()" with connectionID=C#12 will be disconnected
RelationalDatabase Info Delete the RalDatabase for 'COOLOFL_LAR/OFLP200'
RalSessionMgr Info Delete the RalSessionMgr for 'COOLOFL_LAR/OFLP200'
IOVDbSvc             INFO Opening COOL connection for COOLOFL_TRT/OFLP200
RalSessionMgr Info Instantiate a R/O RalSessionMgr for 'COOLOFL_TRT/OFLP200'
RalSessionMgr Info Connect to the database server
CORAL/Services/ConnectionService Info Re-ordering 3 replicas using installed algorithm
CORAL/Services/ConnectionService Info Sorting algorithm selected 4 replicas
CORAL/Services/ConnectionService Warning Failed to connect to service sqlite200/ALLP200.db (coral::Exception): 'CORAL/RelationalPlugins/sqlite ( CORAL : "Connection::connect" from "/afs/cern.ch/work/s/ssnyder/builds/atlas-work3e/build-x86_64-slc6-gcc49-opt/Trigger/TrigEvent/TrigEventAthenaPool/unitTestRun/TrigEventAthenaPool_16.0.3.3/sqlite200 is not writable" )' - do NOT retry
CORAL/Services/ConnectionService Info Connection to service "sqlite200/ALLP200.db" with connectionID=C#13 will be disconnected
CORAL/Services/ConnectionService Warning Failure while attempting to connect to "sqlite_file:sqlite200/ALLP200.db": CORAL/RelationalPlugins/sqlite ( CORAL : "Connection::connect" from "/afs/cern.ch/work/s/ssnyder/builds/atlas-work3e/build-x86_64-slc6-gcc49-opt/Trigger/TrigEvent/TrigEventAthenaPool/unitTestRun/TrigEventAthenaPool_16.0.3.3/sqlite200 is not writable" )
CORAL/RelationalPlugins/frontier Info The current compresion level is 5
CORAL/Services/ConnectionService Info New connection to service "ATLF/()" with connectionID=C#14 has been connected
CORAL/Services/ConnectionService Info New user session with sessionID=S#8(C#14.s#1) started on connectionID=C#14 to service "ATLF/()" for user "" in read-only mode
RalSessionMgr Info Start a read-only transaction active for the duration of the database connection
RelationalDatabase Info Instantiate a R/O RalDatabase for 'COOLOFL_TRT/OFLP200'
RelationalDatabase Info Release number backward compatibility - NO SCHEMA EVOLUTION REQUIRED: database with OLDER release number 2.8.0 will be opened using CURRENT client release number 3.1.3
IOVDbSvc             INFO HVS tag OFLCOND-DR-BS7T-ANom-11 resolved to TRTAlign_Nominal for folder /TRT/Align
IOVDbSvc             INFO HVS tag OFLCOND-DR-BS7T-ANom-11 resolved to TRTCalibDX_nominal for folder /TRT/Calib/DX
IOVDbSvc             INFO HVS tag OFLCOND-DR-BS7T-ANom-11 resolved to TrtStrawStatusTemporaryEmpty for folder /TRT/Cond/Status
IOVDbSvc             INFO HVS tag OFLCOND-DR-BS7T-ANom-11 resolved to TrtStrawStatusHT-empty-00-00 for folder /TRT/Cond/StatusHT
IOVDbSvc             INFO HVS tag OFLCOND-DR-BS7T-ANom-11 resolved to TrtStrawStatusPermanentAllBoardsBarrelIndividual for folder /TRT/Cond/StatusPermanent
IOVDbSvc             INFO Disconnecting from COOLOFL_TRT/OFLP200
RalSessionMgr Info Commit the read-only transaction active for the duration of the database connection
RalSessionMgr Info Disconnect from the database server
CORAL/Services/ConnectionService Info User session with sessionID=S#8(C#14.s#1) will be ended on connectionID=C#14
CORAL/Services/ConnectionService Info Connection to service "ATLF/()" with connectionID=C#14 will be disconnected
RelationalDatabase Info Delete the RalDatabase for 'COOLOFL_TRT/OFLP200'
RalSessionMgr Info Delete the RalSessionMgr for 'COOLOFL_TRT/OFLP200'
DbSession Info     Open     DbSession    
Domain[ROOT_All] Info >   Access   DbDomain     READ      [ROOT_All] 
Domain[ROOT_All] Info ->  Access   DbDatabase   READ      [ROOT_All] 8E91164C-1E3C-DB11-8CAB-00132046AB63
Domain[ROOT_All] Info                           /afs/cern.ch/atlas/conditions/poolcond/vol0/oflcond.000002.conditions.simul.pool.v0000/oflcond.000002.conditions.simul.pool.v0000._0028.pool.root
TClass::Init:0: RuntimeWarning: no dictionary for class DataHeader_p1 is available
TClass::Init:0: RuntimeWarning: no dictionary for class DataHeaderElement_p1 is available
RootDatabase.open Success /afs/cern.ch/atlas/conditions/poolcond/vol0/oflcond.000002.conditions.simul.pool.v0000/oflcond.000002.conditions.simul.pool.v0000._0028.pool.root File version:51000
PixelDetectorMa...   INFO Processing IBLDist alignment container with key (/Indet/IBLDist) and alignment folder pointing to /Indet/Align
Domain[ROOT_All] Info ->  Access   DbDatabase   READ      [ROOT_All] 0E3CF1E5-143D-DB11-92C7-000CF1DA62DD
Domain[ROOT_All] Info                           /afs/cern.ch/atlas/conditions/poolcond/vol0/oflcond.000002.conditions.simul.pool.v0000/oflcond.000002.conditions.simul.pool.v0000._0029.pool.root
RootDatabase.open Success /afs/cern.ch/atlas/conditions/poolcond/vol0/oflcond.000002.conditions.simul.pool.v0000/oflcond.000002.conditions.simul.pool.v0000._0029.pool.root File version:51000
Domain[ROOT_All] Info ->  Access   DbDatabase   READ      [ROOT_All] D67CA215-C5CB-DF11-954C-000423DC2158
Domain[ROOT_All] Info                           /afs/cern.ch/atlas/conditions/poolcond/vol0/cond09_mc.000019.gen.COND/cond09_mc.000019.gen.COND._0010.pool.root
RootDatabase.open Success /afs/cern.ch/atlas/conditions/poolcond/vol0/cond09_mc.000019.gen.COND/cond09_mc.000019.gen.COND._0010.pool.root File version:52200
Domain[ROOT_All] Info ->  Access   DbDatabase   READ      [ROOT_All] DAC670C2-A429-DE11-8C8A-0015C5098AA3
Domain[ROOT_All] Info                           /afs/cern.ch/atlas/conditions/poolcond/vol0/cond08_mc.000003.gen.COND/cond08_mc.000003.gen.COND._0041.pool.root
RootDatabase.open Success /afs/cern.ch/atlas/conditions/poolcond/vol0/cond08_mc.000003.gen.COND/cond08_mc.000003.gen.COND._0041.pool.root File version:52200
GeoModelSvc       WARNING *** *** Geometry configured through jobOptions does not match TagInfo tags! *** ***
GeoModelSvc          INFO ** Job Option configuration: 
GeoModelSvc          INFO * ATLAS tag: ATLAS-R1-2012-03-01-00
GeoModelSvc          INFO * InDet tag: 
GeoModelSvc          INFO * Pixel tag: 
GeoModelSvc          INFO * SCT   tag: 
GeoModelSvc          INFO * TRT   tag: 
GeoModelSvc          INFO * LAr   tag: 
GeoModelSvc          INFO * Tile  tag: 
GeoModelSvc          INFO * Muon  tag: 
GeoModelSvc          INFO * Calo  tag: 
GeoModelSvc          INFO * MagField  tag: 
GeoModelSvc          INFO * CavernInfra  tag: 
GeoModelSvc          INFO * ForwardDetectors  tag: 
GeoModelSvc          INFO ** TAG INFO configuration: 
GeoModelSvc          INFO * ATLAS tag: ATLAS-GEO-10-00-00
CaloMgrDetDescrCnv   INFO in createObj: creating a Calo Detector Manager object in the detector store
CaloIdMgrDetDes...   INFO in createObj: creating a CaloDescrManager object in the detector store
ClassIDSvc           INFO  getRegistryEntries: read 147 CLIDRegistry entries for module ALL
CaloIDHelper_ID...   INFO in createObj: creating a CaloDM_ID helper object in the detector store
CaloDM_ID            INFO initialize_from_dictionary
AtlasDetectorID      INFO initialize_from_dictionary - OK
CaloIDHelper_ID...   INFO in createObj: creating a TTOnlineID helper object in the detector store
TTOnlineID           INFO initialize_from_dictionary
AtlasDetectorID      INFO initialize_from_dictionary - OK
CaloIDHelper_ID...   INFO in createObj: creating a CaloCell_SuperCell_ID helper object in the detector store
CaloIDHelper_ID...   INFO in createObj: creating a LArEM_SuperCell_ID helper object in the detector store
AtlasDetectorID      INFO initialize_from_dictionary - OK
CaloIDHelper_ID...   INFO in createObj: creating a LArHEC_SuperCell_ID helper object in the detector store
AtlasDetectorID      INFO initialize_from_dictionary - OK
CaloIDHelper_ID...   INFO in createObj: creating a LArFCAL_SuperCell_ID helper object in the detector store
AtlasDetectorID      INFO initialize_from_dictionary - OK
LArFCAL_Base_ID      INFO Reading file /afs/cern.ch/atlas/software/builds/nightlies/devval/AtlasConditions/rel_2/InstallArea/x86_64-slc6-gcc49-opt/share/FCalSuperCells2DNeighborsNew-April2014.txt
LArFCAL_Base_ID      INFO Reading file /afs/cern.ch/atlas/software/builds/nightlies/devval/AtlasConditions/rel_2/InstallArea/x86_64-slc6-gcc49-opt/share/FCalSuperCells3DNeighborsNextNew-April2014.txt
LArFCAL_Base_ID      INFO Reading file /afs/cern.ch/atlas/software/builds/nightlies/devval/AtlasConditions/rel_2/InstallArea/x86_64-slc6-gcc49-opt/share/FCalSuperCells3DNeighborsPrevNew-April2014.txt
CaloIDHelper_ID...   INFO in createObj: creating a Tile_SuperCell_ID helper object in the detector store
AtlasDetectorID      INFO initialize_from_dictionary - OK
TileNeighbour        INFO Reading file  /afs/cern.ch/atlas/software/builds/nightlies/devval/AtlasConditions/rel_2/InstallArea/x86_64-slc6-gcc49-opt/share/TileSuperCellNeighbour.txt
AtlasDetectorID      INFO initialize_from_dictionary - OK
CaloIdMgrDetDes...   INFO  Finished 
CaloIdMgrDetDes...   INFO Initializing CaloIdMgr from values in CaloIdMgrDetDescrCnv 
CORAL/Services/ConnectionService Info Re-ordering 3 replicas using installed algorithm
CORAL/Services/ConnectionService Info Sorting algorithm selected 4 replicas
CORAL/Services/ConnectionService Warning Failed to connect to service geomDB/geomDB_sqlite (coral::Exception): 'CORAL/RelationalPlugins/sqlite ( CORAL : "Connection::connect" from "/afs/cern.ch/work/s/ssnyder/builds/atlas-work3e/build-x86_64-slc6-gcc49-opt/Trigger/TrigEvent/TrigEventAthenaPool/unitTestRun/TrigEventAthenaPool_16.0.3.3/geomDB is not writable" )' - do NOT retry
CORAL/Services/ConnectionService Info Connection to service "geomDB/geomDB_sqlite" with connectionID=C#15 will be disconnected
CORAL/Services/ConnectionService Warning Failure while attempting to connect to "sqlite_file:geomDB/geomDB_sqlite": CORAL/RelationalPlugins/sqlite ( CORAL : "Connection::connect" from "/afs/cern.ch/work/s/ssnyder/builds/atlas-work3e/build-x86_64-slc6-gcc49-opt/Trigger/TrigEvent/TrigEventAthenaPool/unitTestRun/TrigEventAthenaPool_16.0.3.3/geomDB is not writable" )
CORAL/RelationalPlugins/frontier Info The current compresion level is 5
CORAL/Services/ConnectionService Info New connection to service "ATLF/()" with connectionID=C#16 has been connected
CORAL/Services/ConnectionService Info New user session with sessionID=S#9(C#16.s#1) started on connectionID=C#16 to service "ATLF/()" for user "" in read-only mode
CORAL/Services/ConnectionService Info User session with sessionID=S#9(C#16.s#1) will be ended on connectionID=C#16
CORAL/Services/ConnectionService Info Connection to service "ATLF/()" with connectionID=C#16 will be disconnected
Domain[ROOT_All] Info ->  Access   DbDatabase   READ      [ROOT_All] 8667C6F2-1559-DE11-A611-000423D9A21A
Domain[ROOT_All] Info                           /afs/cern.ch/atlas/conditions/poolcond/vol0/cond08_mc.000003.gen.COND/cond08_mc.000003.gen.COND._0064.pool.root
RootDatabase.open Success /afs/cern.ch/atlas/conditions/poolcond/vol0/cond08_mc.000003.gen.COND/cond08_mc.000003.gen.COND._0064.pool.root File version:52200
AthenaEventLoopMgr   INFO   ===>>>  start processing event #1, run #105200 0 events processed so far  <<<===
ClassIDSvc           INFO  getRegistryEntries: read 204 CLIDRegistry entries for module ALL
ClassIDSvc           INFO  getRegistryEntries: read 2021 CLIDRegistry entries for module ALL
ClassIDSvc           INFO  getRegistryEntries: read 66 CLIDRegistry entries for module ALL
ClassIDSvc           INFO  getRegistryEntries: read 6 CLIDRegistry entries for module ALL
ClassIDSvc           INFO  getRegistryEntries: read 58 CLIDRegistry entries for module ALL
ClassIDSvc           INFO  getRegistryEntries: read 3 CLIDRegistry entries for module ALL
ClassIDSvc           INFO  getRegistryEntries: read 10 CLIDRegistry entries for module ALL
ClassIDSvc           INFO  getRegistryEntries: read 87 CLIDRegistry entries for module ALL
ClassIDSvc           INFO  getRegistryEntries: read 2 CLIDRegistry entries for module ALL
ClassIDSvc           INFO  getRegistryEntries: read 73 CLIDRegistry entries for module ALL
TrackParticleCo...   INFO TrackParticleContainerCnv::initialize()
ClassIDSvc           INFO  getRegistryEntries: read 14 CLIDRegistry entries for module ALL
AtlasIDDetDescrCnv   INFO in createObj: creating a AtlasDetectorID helper object in the detector store
AtlasDetectorID      INFO initialize_from_dictionary - OK
ClassIDSvc           INFO  getRegistryEntries: read 334 CLIDRegistry entries for module ALL
AthenaEventLoopMgr   INFO   ===>>>  done processing event #1, run #105200 1 events processed so far  <<<===
/afs/cern.ch/atlas/conditions/poolcond/vol0/oflcond.000002.conditions.simul.pool.v0000/oflcond.000002.conditions.simul.pool.v0000._0029.pool.root Info Database being retired...
Domain[ROOT_All] Info ->  Deaccess DbDatabase   READ      [ROOT_All] 0E3CF1E5-143D-DB11-92C7-000CF1DA62DD
/afs/cern.ch/atlas/conditions/poolcond/vol0/cond09_mc.000019.gen.COND/cond09_mc.000019.gen.COND._0010.pool.root Info Database being retired...
Domain[ROOT_All] Info ->  Deaccess DbDatabase   READ      [ROOT_All] D67CA215-C5CB-DF11-954C-000423DC2158
/afs/cern.ch/atlas/conditions/poolcond/vol0/cond08_mc.000003.gen.COND/cond08_mc.000003.gen.COND._0041.pool.root Info Database being retired...
Domain[ROOT_All] Info ->  Deaccess DbDatabase   READ      [ROOT_All] DAC670C2-A429-DE11-8C8A-0015C5098AA3
/afs/cern.ch/atlas/conditions/poolcond/vol0/oflcond.000002.conditions.simul.pool.v0000/oflcond.000002.conditions.simul.pool.v0000._0028.pool.root Info Database being retired...
Domain[ROOT_All] Info ->  Deaccess DbDatabase   READ      [ROOT_All] 8E91164C-1E3C-DB11-8CAB-00132046AB63
/afs/cern.ch/atlas/conditions/poolcond/vol0/cond08_mc.000003.gen.COND/cond08_mc.000003.gen.COND._0064.pool.root Info Database being retired...
Domain[ROOT_All] Info ->  Deaccess DbDatabase   READ      [ROOT_All] 8667C6F2-1559-DE11-A611-000423D9A21A
Domain[ROOT_All] Info >   Deaccess DbDomain     READ      [ROOT_All] 
AthenaEventLoopMgr   INFO   ===>>>  start processing event #2, run #105200 1 events processed so far  <<<===
AthenaEventLoopMgr   INFO   ===>>>  done processing event #2, run #105200 2 events processed so far  <<<===
AthenaEventLoopMgr   INFO   ===>>>  start processing event #3, run #105200 2 events processed so far  <<<===
AthenaEventLoopMgr   INFO   ===>>>  done processing event #3, run #105200 3 events processed so far  <<<===
AthenaEventLoopMgr   INFO   ===>>>  start processing event #4, run #105200 3 events processed so far  <<<===
AthenaEventLoopMgr   INFO   ===>>>  done processing event #4, run #105200 4 events processed so far  <<<===
AthenaEventLoopMgr   INFO   ===>>>  start processing event #5, run #105200 4 events processed so far  <<<===
AthenaEventLoopMgr   INFO   ===>>>  done processing event #5, run #105200 5 events processed so far  <<<===
AthenaEventLoopMgr   INFO   ===>>>  start processing event #6, run #105200 5 events processed so far  <<<===
AthenaEventLoopMgr   INFO   ===>>>  done processing event #6, run #105200 6 events processed so far  <<<===
AthenaEventLoopMgr   INFO   ===>>>  start processing event #7, run #105200 6 events processed so far  <<<===
AthenaEventLoopMgr   INFO   ===>>>  done processing event #7, run #105200 7 events processed so far  <<<===
AthenaEventLoopMgr   INFO   ===>>>  start processing event #8, run #105200 7 events processed so far  <<<===
AthenaEventLoopMgr   INFO   ===>>>  done processing event #8, run #105200 8 events processed so far  <<<===
AthenaEventLoopMgr   INFO   ===>>>  start processing event #9, run #105200 8 events processed so far  <<<===
AthenaEventLoopMgr   INFO   ===>>>  done processing event #9, run #105200 9 events processed so far  <<<===
AthenaEventLoopMgr   INFO   ===>>>  start processing event #10, run #105200 9 events processed so far  <<<===
AthenaEventLoopMgr   INFO   ===>>>  done processing event #10, run #105200 10 events processed so far  <<<===
/afs/cern.ch/atlas/maxidisk/d33/referencefiles/aod/AOD-16.0.3.3/AOD-16.0.3.3-full.pool.root Info Database being retired...
Domain[ROOT_All] Info ->  Deaccess DbDatabase   READ      [ROOT_All] 48D7B5A4-1E0D-E011-B6D0-003048F0E778
Domain[ROOT_All] Info >   Deaccess DbDomain     READ      [ROOT_All] 
AthenaEventLoopMgr   INFO No more events in event selection 
TileInfoLoader       INFO Handling EndRun incident
TileInfoLoader       INFO Removed TileInfo object from detector store.
DetectorStore        INFO Stop DetectorStore
ConditionStore       INFO Stop ConditionStore
StoreGateSvc         INFO Stop StoreGateSvc
StoreGateSvc         INFO stop: setting service priority to 101 so that event stores get finalized and cleared before other stores
TagMetaDataStore     INFO Stop TagMetaDataStore
MetaDataStore        INFO Stop MetaDataStore
InputMetaDataStore   INFO Stop InputMetaDataStore
ApplicationMgr       INFO Application Manager Stopped successfully
dumper               INFO Finalizing dumper...
AthAlgSeq            INFO Finalizing AthAlgSeq...
AthOutSeq            INFO Finalizing AthOutSeq...
AthRegSeq            INFO Finalizing AthRegSeq...
AthMasterSeq         INFO Finalizing AthMasterSeq...
StoreGateSvc         INFO Finalizing StoreGateSvc - package version StoreGate-03-06-43
PyComponentMgr       INFO Finalizing PyComponentMgr...
IdDictDetDescrCnv    INFO in finalize
DetectorStore        INFO Finalizing DetectorStore - package version StoreGate-03-06-43
ConditionStore       INFO Finalizing ConditionStore - package version StoreGate-03-06-43
IOVDbSvc             INFO Folder /Indet/Align (PoolColl) db-read 1/1 objs/chan/bytes 34/43/5440 ((     0.06 ))s
IOVDbSvc             INFO Folder /Indet/IBLDist (AttrListColl) db-read 1/1 objs/chan/bytes 14/14/280 ((     0.03 ))s
IOVDbSvc             INFO Folder /Indet/PixelDist (PoolRef) db-read 1/0 objs/chan/bytes 1/1/174 ((     0.04 ))s
IOVDbSvc          WARNING Folder /Indet/PixelDist is requested but no data retrieved
IOVDbSvc             INFO Folder /LAR/Align (PoolRef) db-read 1/1 objs/chan/bytes 1/1/170 ((     0.09 ))s
IOVDbSvc             INFO Folder /TRT/Align (PoolColl) db-read 1/1 objs/chan/bytes 32/32/5120 ((     0.05 ))s
IOVDbSvc             INFO Folder /TRT/Calib/DX (PoolRef) db-read 1/1 objs/chan/bytes 1/1/183 ((     0.03 ))s
IOVDbSvc             INFO Folder /TRT/Cond/Status (PoolColl) db-read 1/0 objs/chan/bytes 36/36/6732 ((     0.04 ))s
IOVDbSvc          WARNING Folder /TRT/Cond/Status is requested but no data retrieved
IOVDbSvc             INFO Folder /TRT/Cond/StatusHT (PoolColl) db-read 1/0 objs/chan/bytes 35/35/6370 ((     0.04 ))s
IOVDbSvc          WARNING Folder /TRT/Cond/StatusHT is requested but no data retrieved
IOVDbSvc             INFO Folder /TRT/Cond/StatusPermanent (PoolColl) db-read 1/0 objs/chan/bytes 35/36/6545 ((     0.04 ))s
IOVDbSvc          WARNING Folder /TRT/Cond/StatusPermanent is requested but no data retrieved
IOVDbSvc             INFO Folder /TagInfo (AttrListColl) db-read 0/2 objs/chan/bytes 2/0/0 ((     0.00 ))s
IOVDbSvc             INFO Folder /LAR/LArCellPositionShift (PoolRef) db-read 1/1 objs/chan/bytes 1/1/195 ((     0.03 ))s
IOVDbSvc             INFO Total payload read from COOL: 31209 bytes in ((      0.45 ))s
IOVDbSvc             INFO Connection sqlite://;schema=mycool.db;dbname=OFLP200 : nConnect: 0 nFolders: 0 ReadTime: ((     0.00 ))s
IOVDbSvc             INFO Connection COOLOFL_TRT/OFLP200 : nConnect: 2 nFolders: 5 ReadTime: ((     0.20 ))s
IOVDbSvc             INFO Connection COOLOFL_INDET/OFLP200 : nConnect: 2 nFolders: 3 ReadTime: ((     0.13 ))s
IOVDbSvc             INFO Connection COOLOFL_LAR/OFLP200 : nConnect: 2 nFolders: 2 ReadTime: ((     0.12 ))s
TagMetaDataStore     INFO Finalizing TagMetaDataStore - package version StoreGate-03-06-43
XMLFileCatalog Info Updating the catalog
PoolXMLFileCatalog Info XercesC termination number 0
PoolSvc              INFO I/O finalization...
MetaDataStore        INFO Finalizing MetaDataStore - package version StoreGate-03-06-43
InputMetaDataStore   INFO Finalizing InputMetaDataStore - package version StoreGate-03-06-43
TileInfoLoader       INFO TileInfoLoader::finalize()
AthDictLoaderSvc     INFO in finalize...
ToolSvc              INFO Removing all tools created by ToolSvc
*****Chrono*****     INFO ****************************************************************************************************
*****Chrono*****     INFO  The Final CPU consumption ( Chrono ) Table (ordered)
*****Chrono*****     INFO ****************************************************************************************************
AthenaSealSvc::...   INFO Time User   : Tot=    0 [us]                                             #=  1
ChronoStatSvc        INFO Time User   : Tot= 72.5  [s]                                             #=  1
*****Chrono*****     INFO ****************************************************************************************************
ChronoStatSvc.f...   INFO  Service finalized successfully 
ApplicationMgr       INFO Application Manager Finalized successfully
ApplicationMgr       INFO Application Manager Terminated successfully
Py:Athena            INFO leaving with code 0: "successful run"
CoralApplication Info Delete the COOL CoralApplication...
CoralApplication Info Delete the COOL database service
RalDatabaseSvc Info Delete the RalDatabaseSvc...
RalDatabaseSvc Info Purge the connection pool
RalDatabaseSvc Info Reset the ICS pointer
RalDatabaseSvc Info Delete the RalDatabaseSvc... DONE
CoralApplication Info Delete the CORAL connection service
CoralApplication Info Delete the COOL CoralApplication... DONE
CORAL/Services/ConnectionService Info Deleting the ConnectionPool
